(kicad_symbol_lib
	(version 20231120)
	(generator "kicad_symbol_editor")
	(generator_version "8.0")
	(symbol "CCGM1A1"
		(exclude_from_sim no)
		(in_bom yes)
		(on_board yes)
		(property "Reference" "U"
			(at -12.7 8.89 0)
			(effects
				(font
					(size 1.27 1.27)
				)
				(justify left)
			)
		)
		(property "Value" "CCGM1A1"
			(at 11.43 8.89 0)
			(effects
				(font
					(size 1.27 1.27)
				)
				(justify right)
			)
		)
		(property "Footprint" "Package_BGA:BGA-324_15.0x15.0mm_Layout18x18_P0.8mm_Ball0.45mm_Pad0.4mm_NSMD"
			(at -5.08 16.51 0)
			(effects
				(font
					(size 1.27 1.27)
				)
				(hide yes)
			)
		)
		(property "Datasheet" "https://colognechip.com/docs/ds1001-gatemate1-datasheet-2022-05.pdf"
			(at 0 7.62 0)
			(effects
				(font
					(size 1.27 1.27)
				)
				(hide yes)
			)
		)
		(property "Description" "Cologne Chip GateMate FPGA, BGA-324"
			(at 0 0 0)
			(effects
				(font
					(size 1.27 1.27)
				)
				(hide yes)
			)
		)
		(property "ki_locked" ""
			(at 0 0 0)
			(effects
				(font
					(size 1.27 1.27)
				)
			)
		)
		(property "ki_keywords" "GateMate FPGA"
			(at 0 0 0)
			(effects
				(font
					(size 1.27 1.27)
				)
				(hide yes)
			)
		)
		(property "ki_fp_filters" "BGA*15.0x15.0mm*Layout18x18*P0.8mm*"
			(at 0 0 0)
			(effects
				(font
					(size 1.27 1.27)
				)
				(hide yes)
			)
		)
		(symbol "CCGM1A1_1_1"
			(rectangle
				(start -11.43 7.62)
				(end 11.43 -7.62)
				(stroke
					(width 0.254)
					(type default)
				)
				(fill
					(type background)
				)
			)
			(text "SERDES"
				(at 0 0 0)
				(effects
					(font
						(size 1.27 1.27)
					)
				)
			)
			(pin input line
				(at -15.24 5.08 0)
				(length 3.81)
				(name "SER_RX_P"
					(effects
						(font
							(size 1.27 1.27)
						)
					)
				)
				(number "U11"
					(effects
						(font
							(size 1.27 1.27)
						)
					)
				)
			)
			(pin output line
				(at 15.24 5.08 180)
				(length 3.81)
				(name "SER_TX_P"
					(effects
						(font
							(size 1.27 1.27)
						)
					)
				)
				(number "U13"
					(effects
						(font
							(size 1.27 1.27)
						)
					)
				)
			)
			(pin input line
				(at -15.24 2.54 0)
				(length 3.81)
				(name "SER_RX_N"
					(effects
						(font
							(size 1.27 1.27)
						)
					)
				)
				(number "V11"
					(effects
						(font
							(size 1.27 1.27)
						)
					)
				)
			)
			(pin passive line
				(at 15.24 -5.08 180)
				(length 3.81)
				(name "SER_RTERM"
					(effects
						(font
							(size 1.27 1.27)
						)
					)
				)
				(number "V12"
					(effects
						(font
							(size 1.27 1.27)
						)
					)
				)
			)
			(pin output line
				(at 15.24 2.54 180)
				(length 3.81)
				(name "SER_TX_N"
					(effects
						(font
							(size 1.27 1.27)
						)
					)
				)
				(number "V13"
					(effects
						(font
							(size 1.27 1.27)
						)
					)
				)
			)
		)
		(symbol "CCGM1A1_2_1"
			(rectangle
				(start 24.13 21.59)
				(end -24.13 -21.59)
				(stroke
					(width 0.254)
					(type default)
				)
				(fill
					(type background)
				)
			)
			(text "CONFIGURATION"
				(at -11.43 6.35 0)
				(effects
					(font
						(size 1.27 1.27)
					)
				)
			)
			(pin bidirectional line
				(at 27.94 -7.62 180)
				(length 3.81)
				(name "IO_WA_A8/~{SPI_CS}"
					(effects
						(font
							(size 1.27 1.27)
						)
					)
				)
				(number "N3"
					(effects
						(font
							(size 1.27 1.27)
						)
					)
				)
			)
			(pin bidirectional line
				(at 27.94 -10.16 180)
				(length 3.81)
				(name "IO_WA_B8/SPI_CLK"
					(effects
						(font
							(size 1.27 1.27)
						)
					)
				)
				(number "N4"
					(effects
						(font
							(size 1.27 1.27)
						)
					)
				)
			)
			(pin power_in line
				(at 0 25.4 270)
				(length 3.81)
				(name "VDD_WA"
					(effects
						(font
							(size 1.27 1.27)
						)
					)
				)
				(number "N5"
					(effects
						(font
							(size 1.27 1.27)
						)
					)
				)
			)
			(pin bidirectional line
				(at 27.94 5.08 180)
				(length 3.81)
				(name "IO_WA_A7/SPI_D1"
					(effects
						(font
							(size 1.27 1.27)
						)
					)
				)
				(number "P1"
					(effects
						(font
							(size 1.27 1.27)
						)
					)
				)
			)
			(pin bidirectional line
				(at 27.94 7.62 180)
				(length 3.81)
				(name "IO_WA_B7/SPI_D0"
					(effects
						(font
							(size 1.27 1.27)
						)
					)
				)
				(number "P2"
					(effects
						(font
							(size 1.27 1.27)
						)
					)
				)
			)
			(pin passive line
				(at 0 25.4 270)
				(length 3.81) hide
				(name "VDD_WA"
					(effects
						(font
							(size 1.27 1.27)
						)
					)
				)
				(number "P3"
					(effects
						(font
							(size 1.27 1.27)
						)
					)
				)
			)
			(pin passive line
				(at 0 25.4 270)
				(length 3.81) hide
				(name "VDD_WA"
					(effects
						(font
							(size 1.27 1.27)
						)
					)
				)
				(number "P5"
					(effects
						(font
							(size 1.27 1.27)
						)
					)
				)
			)
			(pin bidirectional line
				(at 27.94 0 180)
				(length 3.81)
				(name "IO_WA_A6/SPI_D3"
					(effects
						(font
							(size 1.27 1.27)
						)
					)
				)
				(number "R1"
					(effects
						(font
							(size 1.27 1.27)
						)
					)
				)
			)
			(pin bidirectional line
				(at 27.94 2.54 180)
				(length 3.81)
				(name "IO_WA_B6/SPI_D2"
					(effects
						(font
							(size 1.27 1.27)
						)
					)
				)
				(number "R2"
					(effects
						(font
							(size 1.27 1.27)
						)
					)
				)
			)
			(pin bidirectional line
				(at -27.94 2.54 0)
				(length 3.81)
				(name "JTAG_TCK/IO_WA_A5"
					(effects
						(font
							(size 1.27 1.27)
						)
					)
				)
				(number "R3"
					(effects
						(font
							(size 1.27 1.27)
						)
					)
				)
			)
			(pin bidirectional line
				(at 27.94 -15.24 180)
				(length 3.81)
				(name "IO_WA_B5/SPI_FWD"
					(effects
						(font
							(size 1.27 1.27)
						)
					)
				)
				(number "R4"
					(effects
						(font
							(size 1.27 1.27)
						)
					)
				)
			)
			(pin bidirectional line
				(at -27.94 17.78 0)
				(length 3.81)
				(name "CFG_MD0/IO_WA_A0"
					(effects
						(font
							(size 1.27 1.27)
						)
					)
				)
				(number "R5"
					(effects
						(font
							(size 1.27 1.27)
						)
					)
				)
			)
			(pin passive line
				(at 0 25.4 270)
				(length 3.81) hide
				(name "VDD_WA"
					(effects
						(font
							(size 1.27 1.27)
						)
					)
				)
				(number "T1"
					(effects
						(font
							(size 1.27 1.27)
						)
					)
				)
			)
			(pin bidirectional line
				(at -27.94 -2.54 0)
				(length 3.81)
				(name "JTAG_TDI/IO_WA_A4"
					(effects
						(font
							(size 1.27 1.27)
						)
					)
				)
				(number "T2"
					(effects
						(font
							(size 1.27 1.27)
						)
					)
				)
			)
			(pin bidirectional line
				(at -27.94 0 0)
				(length 3.81)
				(name "JTAG_TMS/IO_WA_B4"
					(effects
						(font
							(size 1.27 1.27)
						)
					)
				)
				(number "T3"
					(effects
						(font
							(size 1.27 1.27)
						)
					)
				)
			)
			(pin bidirectional line
				(at -27.94 15.24 0)
				(length 3.81)
				(name "CFG_MD1/IO_WA_B0"
					(effects
						(font
							(size 1.27 1.27)
						)
					)
				)
				(number "T5"
					(effects
						(font
							(size 1.27 1.27)
						)
					)
				)
			)
			(pin bidirectional line
				(at -27.94 -12.7 0)
				(length 3.81)
				(name "POR_EN/IO_WA_A3"
					(effects
						(font
							(size 1.27 1.27)
						)
					)
				)
				(number "U1"
					(effects
						(font
							(size 1.27 1.27)
						)
					)
				)
			)
			(pin bidirectional line
				(at -27.94 -5.08 0)
				(length 3.81)
				(name "JTAG_TDO/IO_WA_B3"
					(effects
						(font
							(size 1.27 1.27)
						)
					)
				)
				(number "U2"
					(effects
						(font
							(size 1.27 1.27)
						)
					)
				)
			)
			(pin passive line
				(at 0 25.4 270)
				(length 3.81) hide
				(name "VDD_WA"
					(effects
						(font
							(size 1.27 1.27)
						)
					)
				)
				(number "U3"
					(effects
						(font
							(size 1.27 1.27)
						)
					)
				)
			)
			(pin bidirectional line
				(at -27.94 12.7 0)
				(length 3.81)
				(name "CFG_MD2/IO_WA_A1"
					(effects
						(font
							(size 1.27 1.27)
						)
					)
				)
				(number "U4"
					(effects
						(font
							(size 1.27 1.27)
						)
					)
				)
			)
			(pin bidirectional line
				(at 27.94 17.78 180)
				(length 3.81)
				(name "IO_WA_A2/~{CFG_FAILED}"
					(effects
						(font
							(size 1.27 1.27)
						)
					)
				)
				(number "V2"
					(effects
						(font
							(size 1.27 1.27)
						)
					)
				)
			)
			(pin bidirectional line
				(at 27.94 15.24 180)
				(length 3.81)
				(name "IO_WA_B2/CFG_DONE"
					(effects
						(font
							(size 1.27 1.27)
						)
					)
				)
				(number "V3"
					(effects
						(font
							(size 1.27 1.27)
						)
					)
				)
			)
			(pin bidirectional line
				(at -27.94 10.16 0)
				(length 3.81)
				(name "CFG_MD3/IO_WA_B1"
					(effects
						(font
							(size 1.27 1.27)
						)
					)
				)
				(number "V4"
					(effects
						(font
							(size 1.27 1.27)
						)
					)
				)
			)
		)
		(symbol "CCGM1A1_3_1"
			(rectangle
				(start -13.97 -26.67)
				(end 13.97 26.67)
				(stroke
					(width 0.254)
					(type default)
				)
				(fill
					(type background)
				)
			)
			(text "IO North"
				(at 0 2.54 0)
				(effects
					(font
						(size 1.27 1.27)
					)
				)
			)
			(pin bidirectional line
				(at 17.78 10.16 180)
				(length 3.81)
				(name "IO_NB_B2"
					(effects
						(font
							(size 1.27 1.27)
						)
					)
				)
				(number "A11"
					(effects
						(font
							(size 1.27 1.27)
						)
					)
				)
			)
			(pin bidirectional line
				(at 17.78 -2.54 180)
				(length 3.81)
				(name "IO_NB_B4"
					(effects
						(font
							(size 1.27 1.27)
						)
					)
				)
				(number "A12"
					(effects
						(font
							(size 1.27 1.27)
						)
					)
				)
			)
			(pin bidirectional line
				(at 17.78 -17.78 180)
				(length 3.81)
				(name "IO_NB_B7"
					(effects
						(font
							(size 1.27 1.27)
						)
					)
				)
				(number "A14"
					(effects
						(font
							(size 1.27 1.27)
						)
					)
				)
			)
			(pin bidirectional line
				(at -17.78 22.86 0)
				(length 3.81)
				(name "IO_NA_A0"
					(effects
						(font
							(size 1.27 1.27)
						)
					)
				)
				(number "A3"
					(effects
						(font
							(size 1.27 1.27)
						)
					)
				)
			)
			(pin bidirectional line
				(at -17.78 17.78 0)
				(length 3.81)
				(name "IO_NA_A1"
					(effects
						(font
							(size 1.27 1.27)
						)
					)
				)
				(number "A4"
					(effects
						(font
							(size 1.27 1.27)
						)
					)
				)
			)
			(pin power_in line
				(at -2.54 30.48 270)
				(length 3.81)
				(name "VDD_NA"
					(effects
						(font
							(size 1.27 1.27)
						)
					)
				)
				(number "A5"
					(effects
						(font
							(size 1.27 1.27)
						)
					)
				)
			)
			(pin bidirectional line
				(at -17.78 0 0)
				(length 3.81)
				(name "IO_NA_A4"
					(effects
						(font
							(size 1.27 1.27)
						)
					)
				)
				(number "A6"
					(effects
						(font
							(size 1.27 1.27)
						)
					)
				)
			)
			(pin bidirectional line
				(at -17.78 -15.24 0)
				(length 3.81)
				(name "IO_NA_A7"
					(effects
						(font
							(size 1.27 1.27)
						)
					)
				)
				(number "A8"
					(effects
						(font
							(size 1.27 1.27)
						)
					)
				)
			)
			(pin bidirectional line
				(at 17.78 20.32 180)
				(length 3.81)
				(name "IO_NB_B0"
					(effects
						(font
							(size 1.27 1.27)
						)
					)
				)
				(number "A9"
					(effects
						(font
							(size 1.27 1.27)
						)
					)
				)
			)
			(pin power_in line
				(at 2.54 30.48 270)
				(length 3.81)
				(name "VDD_NB"
					(effects
						(font
							(size 1.27 1.27)
						)
					)
				)
				(number "B10"
					(effects
						(font
							(size 1.27 1.27)
						)
					)
				)
			)
			(pin bidirectional line
				(at 17.78 12.7 180)
				(length 3.81)
				(name "IO_NB_A2"
					(effects
						(font
							(size 1.27 1.27)
						)
					)
				)
				(number "B11"
					(effects
						(font
							(size 1.27 1.27)
						)
					)
				)
			)
			(pin bidirectional line
				(at 17.78 0 180)
				(length 3.81)
				(name "IO_NB_A4"
					(effects
						(font
							(size 1.27 1.27)
						)
					)
				)
				(number "B12"
					(effects
						(font
							(size 1.27 1.27)
						)
					)
				)
			)
			(pin passive line
				(at 2.54 30.48 270)
				(length 3.81) hide
				(name "VDD_NB"
					(effects
						(font
							(size 1.27 1.27)
						)
					)
				)
				(number "B13"
					(effects
						(font
							(size 1.27 1.27)
						)
					)
				)
			)
			(pin bidirectional line
				(at 17.78 -15.24 180)
				(length 3.81)
				(name "IO_NB_A7"
					(effects
						(font
							(size 1.27 1.27)
						)
					)
				)
				(number "B14"
					(effects
						(font
							(size 1.27 1.27)
						)
					)
				)
			)
			(pin bidirectional line
				(at -17.78 20.32 0)
				(length 3.81)
				(name "IO_NA_B0"
					(effects
						(font
							(size 1.27 1.27)
						)
					)
				)
				(number "B3"
					(effects
						(font
							(size 1.27 1.27)
						)
					)
				)
			)
			(pin bidirectional line
				(at -17.78 15.24 0)
				(length 3.81)
				(name "IO_NA_B1"
					(effects
						(font
							(size 1.27 1.27)
						)
					)
				)
				(number "B4"
					(effects
						(font
							(size 1.27 1.27)
						)
					)
				)
			)
			(pin bidirectional line
				(at -17.78 12.7 0)
				(length 3.81)
				(name "IO_NA_A2"
					(effects
						(font
							(size 1.27 1.27)
						)
					)
				)
				(number "B5"
					(effects
						(font
							(size 1.27 1.27)
						)
					)
				)
			)
			(pin bidirectional line
				(at -17.78 -2.54 0)
				(length 3.81)
				(name "IO_NA_B4"
					(effects
						(font
							(size 1.27 1.27)
						)
					)
				)
				(number "B6"
					(effects
						(font
							(size 1.27 1.27)
						)
					)
				)
			)
			(pin passive line
				(at -2.54 30.48 270)
				(length 3.81) hide
				(name "VDD_NA"
					(effects
						(font
							(size 1.27 1.27)
						)
					)
				)
				(number "B7"
					(effects
						(font
							(size 1.27 1.27)
						)
					)
				)
			)
			(pin bidirectional line
				(at -17.78 -17.78 0)
				(length 3.81)
				(name "IO_NA_B7"
					(effects
						(font
							(size 1.27 1.27)
						)
					)
				)
				(number "B8"
					(effects
						(font
							(size 1.27 1.27)
						)
					)
				)
			)
			(pin bidirectional line
				(at 17.78 22.86 180)
				(length 3.81)
				(name "IO_NB_A0"
					(effects
						(font
							(size 1.27 1.27)
						)
					)
				)
				(number "B9"
					(effects
						(font
							(size 1.27 1.27)
						)
					)
				)
			)
			(pin bidirectional line
				(at 17.78 15.24 180)
				(length 3.81)
				(name "IO_NB_B1"
					(effects
						(font
							(size 1.27 1.27)
						)
					)
				)
				(number "C10"
					(effects
						(font
							(size 1.27 1.27)
						)
					)
				)
			)
			(pin bidirectional line
				(at 17.78 5.08 180)
				(length 3.81)
				(name "IO_NB_B3"
					(effects
						(font
							(size 1.27 1.27)
						)
					)
				)
				(number "C11"
					(effects
						(font
							(size 1.27 1.27)
						)
					)
				)
			)
			(pin bidirectional line
				(at 17.78 -7.62 180)
				(length 3.81)
				(name "IO_NB_B5"
					(effects
						(font
							(size 1.27 1.27)
						)
					)
				)
				(number "C12"
					(effects
						(font
							(size 1.27 1.27)
						)
					)
				)
			)
			(pin bidirectional line
				(at 17.78 -12.7 180)
				(length 3.81)
				(name "IO_NB_B6"
					(effects
						(font
							(size 1.27 1.27)
						)
					)
				)
				(number "C13"
					(effects
						(font
							(size 1.27 1.27)
						)
					)
				)
			)
			(pin bidirectional line
				(at 17.78 -22.86 180)
				(length 3.81)
				(name "IO_NB_B8"
					(effects
						(font
							(size 1.27 1.27)
						)
					)
				)
				(number "C14"
					(effects
						(font
							(size 1.27 1.27)
						)
					)
				)
			)
			(pin bidirectional line
				(at -17.78 10.16 0)
				(length 3.81)
				(name "IO_NA_B2"
					(effects
						(font
							(size 1.27 1.27)
						)
					)
				)
				(number "C5"
					(effects
						(font
							(size 1.27 1.27)
						)
					)
				)
			)
			(pin bidirectional line
				(at -17.78 7.62 0)
				(length 3.81)
				(name "IO_NA_A3"
					(effects
						(font
							(size 1.27 1.27)
						)
					)
				)
				(number "C6"
					(effects
						(font
							(size 1.27 1.27)
						)
					)
				)
			)
			(pin bidirectional line
				(at -17.78 -5.08 0)
				(length 3.81)
				(name "IO_NA_A5"
					(effects
						(font
							(size 1.27 1.27)
						)
					)
				)
				(number "C7"
					(effects
						(font
							(size 1.27 1.27)
						)
					)
				)
			)
			(pin bidirectional line
				(at -17.78 -10.16 0)
				(length 3.81)
				(name "IO_NA_A6"
					(effects
						(font
							(size 1.27 1.27)
						)
					)
				)
				(number "C8"
					(effects
						(font
							(size 1.27 1.27)
						)
					)
				)
			)
			(pin bidirectional line
				(at -17.78 -20.32 0)
				(length 3.81)
				(name "IO_NA_A8"
					(effects
						(font
							(size 1.27 1.27)
						)
					)
				)
				(number "C9"
					(effects
						(font
							(size 1.27 1.27)
						)
					)
				)
			)
			(pin bidirectional line
				(at 17.78 17.78 180)
				(length 3.81)
				(name "IO_NB_A1"
					(effects
						(font
							(size 1.27 1.27)
						)
					)
				)
				(number "D10"
					(effects
						(font
							(size 1.27 1.27)
						)
					)
				)
			)
			(pin bidirectional line
				(at 17.78 7.62 180)
				(length 3.81)
				(name "IO_NB_A3"
					(effects
						(font
							(size 1.27 1.27)
						)
					)
				)
				(number "D11"
					(effects
						(font
							(size 1.27 1.27)
						)
					)
				)
			)
			(pin bidirectional line
				(at 17.78 -5.08 180)
				(length 3.81)
				(name "IO_NB_A5"
					(effects
						(font
							(size 1.27 1.27)
						)
					)
				)
				(number "D12"
					(effects
						(font
							(size 1.27 1.27)
						)
					)
				)
			)
			(pin bidirectional line
				(at 17.78 -10.16 180)
				(length 3.81)
				(name "IO_NB_A6"
					(effects
						(font
							(size 1.27 1.27)
						)
					)
				)
				(number "D13"
					(effects
						(font
							(size 1.27 1.27)
						)
					)
				)
			)
			(pin bidirectional line
				(at 17.78 -20.32 180)
				(length 3.81)
				(name "IO_NB_A8"
					(effects
						(font
							(size 1.27 1.27)
						)
					)
				)
				(number "D14"
					(effects
						(font
							(size 1.27 1.27)
						)
					)
				)
			)
			(pin bidirectional line
				(at -17.78 5.08 0)
				(length 3.81)
				(name "IO_NA_B3"
					(effects
						(font
							(size 1.27 1.27)
						)
					)
				)
				(number "D6"
					(effects
						(font
							(size 1.27 1.27)
						)
					)
				)
			)
			(pin bidirectional line
				(at -17.78 -7.62 0)
				(length 3.81)
				(name "IO_NA_B5"
					(effects
						(font
							(size 1.27 1.27)
						)
					)
				)
				(number "D7"
					(effects
						(font
							(size 1.27 1.27)
						)
					)
				)
			)
			(pin bidirectional line
				(at -17.78 -12.7 0)
				(length 3.81)
				(name "IO_NA_B6"
					(effects
						(font
							(size 1.27 1.27)
						)
					)
				)
				(number "D8"
					(effects
						(font
							(size 1.27 1.27)
						)
					)
				)
			)
			(pin bidirectional line
				(at -17.78 -22.86 0)
				(length 3.81)
				(name "IO_NA_B8"
					(effects
						(font
							(size 1.27 1.27)
						)
					)
				)
				(number "D9"
					(effects
						(font
							(size 1.27 1.27)
						)
					)
				)
			)
			(pin passive line
				(at 2.54 30.48 270)
				(length 3.81) hide
				(name "VDD_NB"
					(effects
						(font
							(size 1.27 1.27)
						)
					)
				)
				(number "E10"
					(effects
						(font
							(size 1.27 1.27)
						)
					)
				)
			)
			(pin passive line
				(at 2.54 30.48 270)
				(length 3.81) hide
				(name "VDD_NB"
					(effects
						(font
							(size 1.27 1.27)
						)
					)
				)
				(number "E12"
					(effects
						(font
							(size 1.27 1.27)
						)
					)
				)
			)
			(pin passive line
				(at -2.54 30.48 270)
				(length 3.81) hide
				(name "VDD_NA"
					(effects
						(font
							(size 1.27 1.27)
						)
					)
				)
				(number "E6"
					(effects
						(font
							(size 1.27 1.27)
						)
					)
				)
			)
			(pin passive line
				(at -2.54 30.48 270)
				(length 3.81) hide
				(name "VDD_NA"
					(effects
						(font
							(size 1.27 1.27)
						)
					)
				)
				(number "E8"
					(effects
						(font
							(size 1.27 1.27)
						)
					)
				)
			)
			(pin passive line
				(at 2.54 30.48 270)
				(length 3.81) hide
				(name "VDD_NB"
					(effects
						(font
							(size 1.27 1.27)
						)
					)
				)
				(number "F11"
					(effects
						(font
							(size 1.27 1.27)
						)
					)
				)
			)
			(pin passive line
				(at -2.54 30.48 270)
				(length 3.81) hide
				(name "VDD_NA"
					(effects
						(font
							(size 1.27 1.27)
						)
					)
				)
				(number "F7"
					(effects
						(font
							(size 1.27 1.27)
						)
					)
				)
			)
		)
		(symbol "CCGM1A1_4_1"
			(rectangle
				(start -13.97 -26.67)
				(end 13.97 26.67)
				(stroke
					(width 0.254)
					(type default)
				)
				(fill
					(type background)
				)
			)
			(text "IO East"
				(at 0 2.54 0)
				(effects
					(font
						(size 1.27 1.27)
					)
				)
			)
			(pin bidirectional line
				(at 17.78 -22.86 180)
				(length 3.81)
				(name "IO_EB_B8"
					(effects
						(font
							(size 1.27 1.27)
						)
					)
				)
				(number "A15"
					(effects
						(font
							(size 1.27 1.27)
						)
					)
				)
			)
			(pin power_in line
				(at 2.54 30.48 270)
				(length 3.81)
				(name "VDD_EB"
					(effects
						(font
							(size 1.27 1.27)
						)
					)
				)
				(number "A16"
					(effects
						(font
							(size 1.27 1.27)
						)
					)
				)
			)
			(pin bidirectional line
				(at 17.78 -7.62 180)
				(length 3.81)
				(name "IO_EB_B5"
					(effects
						(font
							(size 1.27 1.27)
						)
					)
				)
				(number "A17"
					(effects
						(font
							(size 1.27 1.27)
						)
					)
				)
			)
			(pin bidirectional line
				(at 17.78 -20.32 180)
				(length 3.81)
				(name "IO_EB_A8"
					(effects
						(font
							(size 1.27 1.27)
						)
					)
				)
				(number "B15"
					(effects
						(font
							(size 1.27 1.27)
						)
					)
				)
			)
			(pin bidirectional line
				(at 17.78 -5.08 180)
				(length 3.81)
				(name "IO_EB_A5"
					(effects
						(font
							(size 1.27 1.27)
						)
					)
				)
				(number "B17"
					(effects
						(font
							(size 1.27 1.27)
						)
					)
				)
			)
			(pin passive line
				(at 2.54 30.48 270)
				(length 3.81) hide
				(name "VDD_EB"
					(effects
						(font
							(size 1.27 1.27)
						)
					)
				)
				(number "B18"
					(effects
						(font
							(size 1.27 1.27)
						)
					)
				)
			)
			(pin bidirectional line
				(at 17.78 -17.78 180)
				(length 3.81)
				(name "IO_EB_B7"
					(effects
						(font
							(size 1.27 1.27)
						)
					)
				)
				(number "C15"
					(effects
						(font
							(size 1.27 1.27)
						)
					)
				)
			)
			(pin bidirectional line
				(at 17.78 -12.7 180)
				(length 3.81)
				(name "IO_EB_B6"
					(effects
						(font
							(size 1.27 1.27)
						)
					)
				)
				(number "C16"
					(effects
						(font
							(size 1.27 1.27)
						)
					)
				)
			)
			(pin bidirectional line
				(at 17.78 -2.54 180)
				(length 3.81)
				(name "IO_EB_B4"
					(effects
						(font
							(size 1.27 1.27)
						)
					)
				)
				(number "C17"
					(effects
						(font
							(size 1.27 1.27)
						)
					)
				)
			)
			(pin bidirectional line
				(at 17.78 0 180)
				(length 3.81)
				(name "IO_EB_A4"
					(effects
						(font
							(size 1.27 1.27)
						)
					)
				)
				(number "C18"
					(effects
						(font
							(size 1.27 1.27)
						)
					)
				)
			)
			(pin bidirectional line
				(at 17.78 -15.24 180)
				(length 3.81)
				(name "IO_EB_A7"
					(effects
						(font
							(size 1.27 1.27)
						)
					)
				)
				(number "D15"
					(effects
						(font
							(size 1.27 1.27)
						)
					)
				)
			)
			(pin bidirectional line
				(at 17.78 -10.16 180)
				(length 3.81)
				(name "IO_EB_A6"
					(effects
						(font
							(size 1.27 1.27)
						)
					)
				)
				(number "D16"
					(effects
						(font
							(size 1.27 1.27)
						)
					)
				)
			)
			(pin bidirectional line
				(at 17.78 10.16 180)
				(length 3.81)
				(name "IO_EB_B2"
					(effects
						(font
							(size 1.27 1.27)
						)
					)
				)
				(number "D17"
					(effects
						(font
							(size 1.27 1.27)
						)
					)
				)
			)
			(pin bidirectional line
				(at 17.78 12.7 180)
				(length 3.81)
				(name "IO_EB_A2"
					(effects
						(font
							(size 1.27 1.27)
						)
					)
				)
				(number "D18"
					(effects
						(font
							(size 1.27 1.27)
						)
					)
				)
			)
			(pin passive line
				(at 2.54 30.48 270)
				(length 3.81) hide
				(name "VDD_EB"
					(effects
						(font
							(size 1.27 1.27)
						)
					)
				)
				(number "E14"
					(effects
						(font
							(size 1.27 1.27)
						)
					)
				)
			)
			(pin bidirectional line
				(at 17.78 5.08 180)
				(length 3.81)
				(name "IO_EB_B3"
					(effects
						(font
							(size 1.27 1.27)
						)
					)
				)
				(number "E15"
					(effects
						(font
							(size 1.27 1.27)
						)
					)
				)
			)
			(pin bidirectional line
				(at 17.78 7.62 180)
				(length 3.81)
				(name "IO_EB_A3"
					(effects
						(font
							(size 1.27 1.27)
						)
					)
				)
				(number "E16"
					(effects
						(font
							(size 1.27 1.27)
						)
					)
				)
			)
			(pin passive line
				(at 2.54 30.48 270)
				(length 3.81) hide
				(name "VDD_EB"
					(effects
						(font
							(size 1.27 1.27)
						)
					)
				)
				(number "E17"
					(effects
						(font
							(size 1.27 1.27)
						)
					)
				)
			)
			(pin passive line
				(at 2.54 30.48 270)
				(length 3.81) hide
				(name "VDD_EB"
					(effects
						(font
							(size 1.27 1.27)
						)
					)
				)
				(number "F13"
					(effects
						(font
							(size 1.27 1.27)
						)
					)
				)
			)
			(pin bidirectional line
				(at 17.78 15.24 180)
				(length 3.81)
				(name "IO_EB_B1"
					(effects
						(font
							(size 1.27 1.27)
						)
					)
				)
				(number "F15"
					(effects
						(font
							(size 1.27 1.27)
						)
					)
				)
			)
			(pin bidirectional line
				(at 17.78 17.78 180)
				(length 3.81)
				(name "IO_EB_A1"
					(effects
						(font
							(size 1.27 1.27)
						)
					)
				)
				(number "F16"
					(effects
						(font
							(size 1.27 1.27)
						)
					)
				)
			)
			(pin bidirectional line
				(at 17.78 20.32 180)
				(length 3.81)
				(name "IO_EB_B0"
					(effects
						(font
							(size 1.27 1.27)
						)
					)
				)
				(number "F17"
					(effects
						(font
							(size 1.27 1.27)
						)
					)
				)
			)
			(pin bidirectional line
				(at 17.78 22.86 180)
				(length 3.81)
				(name "IO_EB_A0"
					(effects
						(font
							(size 1.27 1.27)
						)
					)
				)
				(number "F18"
					(effects
						(font
							(size 1.27 1.27)
						)
					)
				)
			)
			(pin power_in line
				(at -2.54 30.48 270)
				(length 3.81)
				(name "VDD_EA"
					(effects
						(font
							(size 1.27 1.27)
						)
					)
				)
				(number "G14"
					(effects
						(font
							(size 1.27 1.27)
						)
					)
				)
			)
			(pin bidirectional line
				(at -17.78 -22.86 0)
				(length 3.81)
				(name "IO_EA_B8"
					(effects
						(font
							(size 1.27 1.27)
						)
					)
				)
				(number "G15"
					(effects
						(font
							(size 1.27 1.27)
						)
					)
				)
			)
			(pin bidirectional line
				(at -17.78 -20.32 0)
				(length 3.81)
				(name "IO_EA_A8"
					(effects
						(font
							(size 1.27 1.27)
						)
					)
				)
				(number "G16"
					(effects
						(font
							(size 1.27 1.27)
						)
					)
				)
			)
			(pin bidirectional line
				(at -17.78 -17.78 0)
				(length 3.81)
				(name "IO_EA_B7"
					(effects
						(font
							(size 1.27 1.27)
						)
					)
				)
				(number "G17"
					(effects
						(font
							(size 1.27 1.27)
						)
					)
				)
			)
			(pin bidirectional line
				(at -17.78 -15.24 0)
				(length 3.81)
				(name "IO_EA_A7"
					(effects
						(font
							(size 1.27 1.27)
						)
					)
				)
				(number "G18"
					(effects
						(font
							(size 1.27 1.27)
						)
					)
				)
			)
			(pin bidirectional line
				(at -17.78 -12.7 0)
				(length 3.81)
				(name "IO_EA_B6"
					(effects
						(font
							(size 1.27 1.27)
						)
					)
				)
				(number "H15"
					(effects
						(font
							(size 1.27 1.27)
						)
					)
				)
			)
			(pin bidirectional line
				(at -17.78 -10.16 0)
				(length 3.81)
				(name "IO_EA_A6"
					(effects
						(font
							(size 1.27 1.27)
						)
					)
				)
				(number "H16"
					(effects
						(font
							(size 1.27 1.27)
						)
					)
				)
			)
			(pin passive line
				(at -2.54 30.48 270)
				(length 3.81) hide
				(name "VDD_EA"
					(effects
						(font
							(size 1.27 1.27)
						)
					)
				)
				(number "H17"
					(effects
						(font
							(size 1.27 1.27)
						)
					)
				)
			)
			(pin passive line
				(at -2.54 30.48 270)
				(length 3.81) hide
				(name "VDD_EA"
					(effects
						(font
							(size 1.27 1.27)
						)
					)
				)
				(number "J14"
					(effects
						(font
							(size 1.27 1.27)
						)
					)
				)
			)
			(pin bidirectional line
				(at -17.78 -7.62 0)
				(length 3.81)
				(name "IO_EA_B5"
					(effects
						(font
							(size 1.27 1.27)
						)
					)
				)
				(number "J15"
					(effects
						(font
							(size 1.27 1.27)
						)
					)
				)
			)
			(pin bidirectional line
				(at -17.78 -5.08 0)
				(length 3.81)
				(name "IO_EA_A5"
					(effects
						(font
							(size 1.27 1.27)
						)
					)
				)
				(number "J16"
					(effects
						(font
							(size 1.27 1.27)
						)
					)
				)
			)
			(pin bidirectional line
				(at -17.78 -2.54 0)
				(length 3.81)
				(name "IO_EA_B4"
					(effects
						(font
							(size 1.27 1.27)
						)
					)
				)
				(number "J17"
					(effects
						(font
							(size 1.27 1.27)
						)
					)
				)
			)
			(pin bidirectional line
				(at -17.78 0 0)
				(length 3.81)
				(name "IO_EA_A4"
					(effects
						(font
							(size 1.27 1.27)
						)
					)
				)
				(number "J18"
					(effects
						(font
							(size 1.27 1.27)
						)
					)
				)
			)
			(pin bidirectional line
				(at -17.78 5.08 0)
				(length 3.81)
				(name "IO_EA_B3"
					(effects
						(font
							(size 1.27 1.27)
						)
					)
				)
				(number "K15"
					(effects
						(font
							(size 1.27 1.27)
						)
					)
				)
			)
			(pin bidirectional line
				(at -17.78 7.62 0)
				(length 3.81)
				(name "IO_EA_A3"
					(effects
						(font
							(size 1.27 1.27)
						)
					)
				)
				(number "K16"
					(effects
						(font
							(size 1.27 1.27)
						)
					)
				)
			)
			(pin bidirectional line
				(at -17.78 10.16 0)
				(length 3.81)
				(name "IO_EA_B2"
					(effects
						(font
							(size 1.27 1.27)
						)
					)
				)
				(number "K17"
					(effects
						(font
							(size 1.27 1.27)
						)
					)
				)
			)
			(pin bidirectional line
				(at -17.78 12.7 0)
				(length 3.81)
				(name "IO_EA_A2"
					(effects
						(font
							(size 1.27 1.27)
						)
					)
				)
				(number "K18"
					(effects
						(font
							(size 1.27 1.27)
						)
					)
				)
			)
			(pin passive line
				(at -2.54 30.48 270)
				(length 3.81) hide
				(name "VDD_EA"
					(effects
						(font
							(size 1.27 1.27)
						)
					)
				)
				(number "L14"
					(effects
						(font
							(size 1.27 1.27)
						)
					)
				)
			)
			(pin bidirectional line
				(at -17.78 15.24 0)
				(length 3.81)
				(name "IO_EA_B1"
					(effects
						(font
							(size 1.27 1.27)
						)
					)
				)
				(number "L15"
					(effects
						(font
							(size 1.27 1.27)
						)
					)
				)
			)
			(pin bidirectional line
				(at -17.78 17.78 0)
				(length 3.81)
				(name "IO_EA_A1"
					(effects
						(font
							(size 1.27 1.27)
						)
					)
				)
				(number "L16"
					(effects
						(font
							(size 1.27 1.27)
						)
					)
				)
			)
			(pin passive line
				(at -2.54 30.48 270)
				(length 3.81) hide
				(name "VDD_EA"
					(effects
						(font
							(size 1.27 1.27)
						)
					)
				)
				(number "L17"
					(effects
						(font
							(size 1.27 1.27)
						)
					)
				)
			)
			(pin bidirectional line
				(at -17.78 20.32 0)
				(length 3.81)
				(name "IO_EA_B0"
					(effects
						(font
							(size 1.27 1.27)
						)
					)
				)
				(number "M14"
					(effects
						(font
							(size 1.27 1.27)
						)
					)
				)
			)
			(pin bidirectional line
				(at -17.78 22.86 0)
				(length 3.81)
				(name "IO_EA_A0"
					(effects
						(font
							(size 1.27 1.27)
						)
					)
				)
				(number "M15"
					(effects
						(font
							(size 1.27 1.27)
						)
					)
				)
			)
		)
		(symbol "CCGM1A1_5_1"
			(rectangle
				(start -13.97 -26.67)
				(end 13.97 26.67)
				(stroke
					(width 0.254)
					(type default)
				)
				(fill
					(type background)
				)
			)
			(text "IO South"
				(at 0 2.54 0)
				(effects
					(font
						(size 1.27 1.27)
					)
				)
			)
			(pin bidirectional line
				(at 17.78 7.62 180)
				(length 3.81)
				(name "IO_SB_A3"
					(effects
						(font
							(size 1.27 1.27)
						)
					)
				)
				(number "M17"
					(effects
						(font
							(size 1.27 1.27)
						)
					)
				)
			)
			(pin bidirectional line
				(at 17.78 5.08 180)
				(length 3.81)
				(name "IO_SB_B3"
					(effects
						(font
							(size 1.27 1.27)
						)
					)
				)
				(number "M18"
					(effects
						(font
							(size 1.27 1.27)
						)
					)
				)
			)
			(pin power_in line
				(at 2.54 30.48 270)
				(length 3.81)
				(name "VDD_SB"
					(effects
						(font
							(size 1.27 1.27)
						)
					)
				)
				(number "N11"
					(effects
						(font
							(size 1.27 1.27)
						)
					)
				)
			)
			(pin passive line
				(at 2.54 30.48 270)
				(length 3.81) hide
				(name "VDD_SB"
					(effects
						(font
							(size 1.27 1.27)
						)
					)
				)
				(number "N13"
					(effects
						(font
							(size 1.27 1.27)
						)
					)
				)
			)
			(pin bidirectional line
				(at 17.78 -20.32 180)
				(length 3.81)
				(name "CLK0/IO_SB_A8"
					(effects
						(font
							(size 1.27 1.27)
						)
					)
				)
				(number "N14"
					(effects
						(font
							(size 1.27 1.27)
						)
					)
				)
			)
			(pin bidirectional line
				(at 17.78 -22.86 180)
				(length 3.81)
				(name "IO_SB_B8"
					(effects
						(font
							(size 1.27 1.27)
						)
					)
				)
				(number "N15"
					(effects
						(font
							(size 1.27 1.27)
						)
					)
				)
			)
			(pin passive line
				(at 2.54 30.48 270)
				(length 3.81) hide
				(name "VDD_SB"
					(effects
						(font
							(size 1.27 1.27)
						)
					)
				)
				(number "N18"
					(effects
						(font
							(size 1.27 1.27)
						)
					)
				)
			)
			(pin passive line
				(at -2.54 30.48 270)
				(length 3.81) hide
				(name "VDD_SA"
					(effects
						(font
							(size 1.27 1.27)
						)
					)
				)
				(number "P10"
					(effects
						(font
							(size 1.27 1.27)
						)
					)
				)
			)
			(pin bidirectional line
				(at 17.78 0 180)
				(length 3.81)
				(name "IO_SB_A4"
					(effects
						(font
							(size 1.27 1.27)
						)
					)
				)
				(number "P11"
					(effects
						(font
							(size 1.27 1.27)
						)
					)
				)
			)
			(pin bidirectional line
				(at 17.78 -15.24 180)
				(length 3.81)
				(name "CLK1/IO_SB_A7"
					(effects
						(font
							(size 1.27 1.27)
						)
					)
				)
				(number "P12"
					(effects
						(font
							(size 1.27 1.27)
						)
					)
				)
			)
			(pin bidirectional line
				(at 17.78 -17.78 180)
				(length 3.81)
				(name "IO_SB_B7"
					(effects
						(font
							(size 1.27 1.27)
						)
					)
				)
				(number "P13"
					(effects
						(font
							(size 1.27 1.27)
						)
					)
				)
			)
			(pin bidirectional line
				(at 17.78 -10.16 180)
				(length 3.81)
				(name "CLK2/IO_SB_A6"
					(effects
						(font
							(size 1.27 1.27)
						)
					)
				)
				(number "P14"
					(effects
						(font
							(size 1.27 1.27)
						)
					)
				)
			)
			(pin bidirectional line
				(at 17.78 -12.7 180)
				(length 3.81)
				(name "IO_SB_B6"
					(effects
						(font
							(size 1.27 1.27)
						)
					)
				)
				(number "P15"
					(effects
						(font
							(size 1.27 1.27)
						)
					)
				)
			)
			(pin bidirectional line
				(at 17.78 12.7 180)
				(length 3.81)
				(name "IO_SB_A2"
					(effects
						(font
							(size 1.27 1.27)
						)
					)
				)
				(number "P17"
					(effects
						(font
							(size 1.27 1.27)
						)
					)
				)
			)
			(pin bidirectional line
				(at 17.78 10.16 180)
				(length 3.81)
				(name "IO_SB_B2"
					(effects
						(font
							(size 1.27 1.27)
						)
					)
				)
				(number "P18"
					(effects
						(font
							(size 1.27 1.27)
						)
					)
				)
			)
			(pin power_in line
				(at -2.54 30.48 270)
				(length 3.81)
				(name "VDD_SA"
					(effects
						(font
							(size 1.27 1.27)
						)
					)
				)
				(number "P6"
					(effects
						(font
							(size 1.27 1.27)
						)
					)
				)
			)
			(pin passive line
				(at -2.54 30.48 270)
				(length 3.81) hide
				(name "VDD_SA"
					(effects
						(font
							(size 1.27 1.27)
						)
					)
				)
				(number "P8"
					(effects
						(font
							(size 1.27 1.27)
						)
					)
				)
			)
			(pin bidirectional line
				(at -17.78 -15.24 0)
				(length 3.81)
				(name "IO_SA_A7"
					(effects
						(font
							(size 1.27 1.27)
						)
					)
				)
				(number "R10"
					(effects
						(font
							(size 1.27 1.27)
						)
					)
				)
			)
			(pin bidirectional line
				(at 17.78 -2.54 180)
				(length 3.81)
				(name "IO_SB_B4"
					(effects
						(font
							(size 1.27 1.27)
						)
					)
				)
				(number "R11"
					(effects
						(font
							(size 1.27 1.27)
						)
					)
				)
			)
			(pin bidirectional line
				(at 17.78 -5.08 180)
				(length 3.81)
				(name "CLK3/IO_SB_A5"
					(effects
						(font
							(size 1.27 1.27)
						)
					)
				)
				(number "R13"
					(effects
						(font
							(size 1.27 1.27)
						)
					)
				)
			)
			(pin bidirectional line
				(at 17.78 -7.62 180)
				(length 3.81)
				(name "IO_SB_B5"
					(effects
						(font
							(size 1.27 1.27)
						)
					)
				)
				(number "R14"
					(effects
						(font
							(size 1.27 1.27)
						)
					)
				)
			)
			(pin passive line
				(at 2.54 30.48 270)
				(length 3.81) hide
				(name "VDD_SB"
					(effects
						(font
							(size 1.27 1.27)
						)
					)
				)
				(number "R15"
					(effects
						(font
							(size 1.27 1.27)
						)
					)
				)
			)
			(pin bidirectional line
				(at 17.78 17.78 180)
				(length 3.81)
				(name "IO_SB_A1"
					(effects
						(font
							(size 1.27 1.27)
						)
					)
				)
				(number "R17"
					(effects
						(font
							(size 1.27 1.27)
						)
					)
				)
			)
			(pin bidirectional line
				(at 17.78 15.24 180)
				(length 3.81)
				(name "IO_SB_B1"
					(effects
						(font
							(size 1.27 1.27)
						)
					)
				)
				(number "R18"
					(effects
						(font
							(size 1.27 1.27)
						)
					)
				)
			)
			(pin bidirectional line
				(at -17.78 17.78 0)
				(length 3.81)
				(name "IO_SA_A1"
					(effects
						(font
							(size 1.27 1.27)
						)
					)
				)
				(number "R6"
					(effects
						(font
							(size 1.27 1.27)
						)
					)
				)
			)
			(pin bidirectional line
				(at -17.78 12.7 0)
				(length 3.81)
				(name "IO_SA_A2"
					(effects
						(font
							(size 1.27 1.27)
						)
					)
				)
				(number "R7"
					(effects
						(font
							(size 1.27 1.27)
						)
					)
				)
			)
			(pin bidirectional line
				(at -17.78 0 0)
				(length 3.81)
				(name "IO_SA_A4"
					(effects
						(font
							(size 1.27 1.27)
						)
					)
				)
				(number "R8"
					(effects
						(font
							(size 1.27 1.27)
						)
					)
				)
			)
			(pin bidirectional line
				(at -17.78 -10.16 0)
				(length 3.81)
				(name "IO_SA_A6"
					(effects
						(font
							(size 1.27 1.27)
						)
					)
				)
				(number "R9"
					(effects
						(font
							(size 1.27 1.27)
						)
					)
				)
			)
			(pin bidirectional line
				(at -17.78 -17.78 0)
				(length 3.81)
				(name "IO_SA_B7"
					(effects
						(font
							(size 1.27 1.27)
						)
					)
				)
				(number "T10"
					(effects
						(font
							(size 1.27 1.27)
						)
					)
				)
			)
			(pin passive line
				(at 2.54 30.48 270)
				(length 3.81) hide
				(name "VDD_SB"
					(effects
						(font
							(size 1.27 1.27)
						)
					)
				)
				(number "T18"
					(effects
						(font
							(size 1.27 1.27)
						)
					)
				)
			)
			(pin bidirectional line
				(at -17.78 15.24 0)
				(length 3.81)
				(name "IO_SA_B1"
					(effects
						(font
							(size 1.27 1.27)
						)
					)
				)
				(number "T6"
					(effects
						(font
							(size 1.27 1.27)
						)
					)
				)
			)
			(pin bidirectional line
				(at -17.78 10.16 0)
				(length 3.81)
				(name "IO_SA_B2"
					(effects
						(font
							(size 1.27 1.27)
						)
					)
				)
				(number "T7"
					(effects
						(font
							(size 1.27 1.27)
						)
					)
				)
			)
			(pin bidirectional line
				(at -17.78 -2.54 0)
				(length 3.81)
				(name "IO_SA_B4"
					(effects
						(font
							(size 1.27 1.27)
						)
					)
				)
				(number "T8"
					(effects
						(font
							(size 1.27 1.27)
						)
					)
				)
			)
			(pin bidirectional line
				(at -17.78 -12.7 0)
				(length 3.81)
				(name "IO_SA_B6"
					(effects
						(font
							(size 1.27 1.27)
						)
					)
				)
				(number "T9"
					(effects
						(font
							(size 1.27 1.27)
						)
					)
				)
			)
			(pin bidirectional line
				(at -17.78 -20.32 0)
				(length 3.81)
				(name "IO_SA_A8"
					(effects
						(font
							(size 1.27 1.27)
						)
					)
				)
				(number "U10"
					(effects
						(font
							(size 1.27 1.27)
						)
					)
				)
			)
			(pin bidirectional line
				(at 17.78 22.86 180)
				(length 3.81)
				(name "IO_SB_A0"
					(effects
						(font
							(size 1.27 1.27)
						)
					)
				)
				(number "U17"
					(effects
						(font
							(size 1.27 1.27)
						)
					)
				)
			)
			(pin bidirectional line
				(at 17.78 20.32 180)
				(length 3.81)
				(name "IO_SB_B0"
					(effects
						(font
							(size 1.27 1.27)
						)
					)
				)
				(number "U18"
					(effects
						(font
							(size 1.27 1.27)
						)
					)
				)
			)
			(pin bidirectional line
				(at -17.78 22.86 0)
				(length 3.81)
				(name "IO_SA_A0"
					(effects
						(font
							(size 1.27 1.27)
						)
					)
				)
				(number "U5"
					(effects
						(font
							(size 1.27 1.27)
						)
					)
				)
			)
			(pin passive line
				(at -2.54 30.48 270)
				(length 3.81) hide
				(name "VDD_SA"
					(effects
						(font
							(size 1.27 1.27)
						)
					)
				)
				(number "U6"
					(effects
						(font
							(size 1.27 1.27)
						)
					)
				)
			)
			(pin bidirectional line
				(at -17.78 7.62 0)
				(length 3.81)
				(name "IO_SA_A3"
					(effects
						(font
							(size 1.27 1.27)
						)
					)
				)
				(number "U7"
					(effects
						(font
							(size 1.27 1.27)
						)
					)
				)
			)
			(pin bidirectional line
				(at -17.78 -5.08 0)
				(length 3.81)
				(name "IO_SA_A5"
					(effects
						(font
							(size 1.27 1.27)
						)
					)
				)
				(number "U8"
					(effects
						(font
							(size 1.27 1.27)
						)
					)
				)
			)
			(pin passive line
				(at -2.54 30.48 270)
				(length 3.81) hide
				(name "VDD_SA"
					(effects
						(font
							(size 1.27 1.27)
						)
					)
				)
				(number "U9"
					(effects
						(font
							(size 1.27 1.27)
						)
					)
				)
			)
			(pin bidirectional line
				(at -17.78 -22.86 0)
				(length 3.81)
				(name "IO_SA_B8"
					(effects
						(font
							(size 1.27 1.27)
						)
					)
				)
				(number "V10"
					(effects
						(font
							(size 1.27 1.27)
						)
					)
				)
			)
			(pin bidirectional line
				(at -17.78 20.32 0)
				(length 3.81)
				(name "IO_SA_B0"
					(effects
						(font
							(size 1.27 1.27)
						)
					)
				)
				(number "V5"
					(effects
						(font
							(size 1.27 1.27)
						)
					)
				)
			)
			(pin bidirectional line
				(at -17.78 5.08 0)
				(length 3.81)
				(name "IO_SA_B3"
					(effects
						(font
							(size 1.27 1.27)
						)
					)
				)
				(number "V7"
					(effects
						(font
							(size 1.27 1.27)
						)
					)
				)
			)
			(pin bidirectional line
				(at -17.78 -7.62 0)
				(length 3.81)
				(name "IO_SA_B5"
					(effects
						(font
							(size 1.27 1.27)
						)
					)
				)
				(number "V8"
					(effects
						(font
							(size 1.27 1.27)
						)
					)
				)
			)
		)
		(symbol "CCGM1A1_6_1"
			(rectangle
				(start -13.97 -26.67)
				(end 13.97 26.67)
				(stroke
					(width 0.254)
					(type default)
				)
				(fill
					(type background)
				)
			)
			(text "IO West"
				(at 0 2.54 0)
				(effects
					(font
						(size 1.27 1.27)
					)
				)
			)
			(pin power_in line
				(at 2.54 30.48 270)
				(length 3.81)
				(name "VDD_WC"
					(effects
						(font
							(size 1.27 1.27)
						)
					)
				)
				(number "A2"
					(effects
						(font
							(size 1.27 1.27)
						)
					)
				)
			)
			(pin bidirectional line
				(at 17.78 -20.32 180)
				(length 3.81)
				(name "IO_WC_A8"
					(effects
						(font
							(size 1.27 1.27)
						)
					)
				)
				(number "B1"
					(effects
						(font
							(size 1.27 1.27)
						)
					)
				)
			)
			(pin bidirectional line
				(at 17.78 -22.86 180)
				(length 3.81)
				(name "IO_WC_B8"
					(effects
						(font
							(size 1.27 1.27)
						)
					)
				)
				(number "B2"
					(effects
						(font
							(size 1.27 1.27)
						)
					)
				)
			)
			(pin passive line
				(at 2.54 30.48 270)
				(length 3.81) hide
				(name "VDD_WC"
					(effects
						(font
							(size 1.27 1.27)
						)
					)
				)
				(number "C2"
					(effects
						(font
							(size 1.27 1.27)
						)
					)
				)
			)
			(pin bidirectional line
				(at 17.78 -15.24 180)
				(length 3.81)
				(name "IO_WC_A7"
					(effects
						(font
							(size 1.27 1.27)
						)
					)
				)
				(number "C3"
					(effects
						(font
							(size 1.27 1.27)
						)
					)
				)
			)
			(pin bidirectional line
				(at 17.78 -17.78 180)
				(length 3.81)
				(name "IO_WC_B7"
					(effects
						(font
							(size 1.27 1.27)
						)
					)
				)
				(number "C4"
					(effects
						(font
							(size 1.27 1.27)
						)
					)
				)
			)
			(pin bidirectional line
				(at 17.78 -5.08 180)
				(length 3.81)
				(name "IO_WC_A5"
					(effects
						(font
							(size 1.27 1.27)
						)
					)
				)
				(number "D1"
					(effects
						(font
							(size 1.27 1.27)
						)
					)
				)
			)
			(pin bidirectional line
				(at 17.78 -7.62 180)
				(length 3.81)
				(name "IO_WC_B5"
					(effects
						(font
							(size 1.27 1.27)
						)
					)
				)
				(number "D2"
					(effects
						(font
							(size 1.27 1.27)
						)
					)
				)
			)
			(pin bidirectional line
				(at 17.78 -10.16 180)
				(length 3.81)
				(name "IO_WC_A6"
					(effects
						(font
							(size 1.27 1.27)
						)
					)
				)
				(number "D3"
					(effects
						(font
							(size 1.27 1.27)
						)
					)
				)
			)
			(pin bidirectional line
				(at 17.78 -12.7 180)
				(length 3.81)
				(name "IO_WC_B6"
					(effects
						(font
							(size 1.27 1.27)
						)
					)
				)
				(number "D4"
					(effects
						(font
							(size 1.27 1.27)
						)
					)
				)
			)
			(pin passive line
				(at 2.54 30.48 270)
				(length 3.81) hide
				(name "VDD_WC"
					(effects
						(font
							(size 1.27 1.27)
						)
					)
				)
				(number "D5"
					(effects
						(font
							(size 1.27 1.27)
						)
					)
				)
			)
			(pin bidirectional line
				(at 17.78 7.62 180)
				(length 3.81)
				(name "IO_WC_A3"
					(effects
						(font
							(size 1.27 1.27)
						)
					)
				)
				(number "E1"
					(effects
						(font
							(size 1.27 1.27)
						)
					)
				)
			)
			(pin bidirectional line
				(at 17.78 5.08 180)
				(length 3.81)
				(name "IO_WC_B3"
					(effects
						(font
							(size 1.27 1.27)
						)
					)
				)
				(number "E2"
					(effects
						(font
							(size 1.27 1.27)
						)
					)
				)
			)
			(pin bidirectional line
				(at 17.78 0 180)
				(length 3.81)
				(name "IO_WC_A4"
					(effects
						(font
							(size 1.27 1.27)
						)
					)
				)
				(number "E3"
					(effects
						(font
							(size 1.27 1.27)
						)
					)
				)
			)
			(pin bidirectional line
				(at 17.78 -2.54 180)
				(length 3.81)
				(name "IO_WC_B4"
					(effects
						(font
							(size 1.27 1.27)
						)
					)
				)
				(number "E4"
					(effects
						(font
							(size 1.27 1.27)
						)
					)
				)
			)
			(pin passive line
				(at 2.54 30.48 270)
				(length 3.81) hide
				(name "VDD_WC"
					(effects
						(font
							(size 1.27 1.27)
						)
					)
				)
				(number "F2"
					(effects
						(font
							(size 1.27 1.27)
						)
					)
				)
			)
			(pin bidirectional line
				(at 17.78 12.7 180)
				(length 3.81)
				(name "IO_WC_A2"
					(effects
						(font
							(size 1.27 1.27)
						)
					)
				)
				(number "F3"
					(effects
						(font
							(size 1.27 1.27)
						)
					)
				)
			)
			(pin bidirectional line
				(at 17.78 10.16 180)
				(length 3.81)
				(name "IO_WC_B2"
					(effects
						(font
							(size 1.27 1.27)
						)
					)
				)
				(number "F4"
					(effects
						(font
							(size 1.27 1.27)
						)
					)
				)
			)
			(pin passive line
				(at 2.54 30.48 270)
				(length 3.81) hide
				(name "VDD_WC"
					(effects
						(font
							(size 1.27 1.27)
						)
					)
				)
				(number "F5"
					(effects
						(font
							(size 1.27 1.27)
						)
					)
				)
			)
			(pin bidirectional line
				(at 17.78 22.86 180)
				(length 3.81)
				(name "IO_WC_A0"
					(effects
						(font
							(size 1.27 1.27)
						)
					)
				)
				(number "G1"
					(effects
						(font
							(size 1.27 1.27)
						)
					)
				)
			)
			(pin bidirectional line
				(at 17.78 20.32 180)
				(length 3.81)
				(name "IO_WC_B0"
					(effects
						(font
							(size 1.27 1.27)
						)
					)
				)
				(number "G2"
					(effects
						(font
							(size 1.27 1.27)
						)
					)
				)
			)
			(pin bidirectional line
				(at 17.78 17.78 180)
				(length 3.81)
				(name "IO_WC_A1"
					(effects
						(font
							(size 1.27 1.27)
						)
					)
				)
				(number "G3"
					(effects
						(font
							(size 1.27 1.27)
						)
					)
				)
			)
			(pin bidirectional line
				(at 17.78 15.24 180)
				(length 3.81)
				(name "IO_WC_B1"
					(effects
						(font
							(size 1.27 1.27)
						)
					)
				)
				(number "G4"
					(effects
						(font
							(size 1.27 1.27)
						)
					)
				)
			)
			(pin bidirectional line
				(at -17.78 -15.24 0)
				(length 3.81)
				(name "IO_WB_A7"
					(effects
						(font
							(size 1.27 1.27)
						)
					)
				)
				(number "H1"
					(effects
						(font
							(size 1.27 1.27)
						)
					)
				)
			)
			(pin bidirectional line
				(at -17.78 -17.78 0)
				(length 3.81)
				(name "IO_WB_B7"
					(effects
						(font
							(size 1.27 1.27)
						)
					)
				)
				(number "H2"
					(effects
						(font
							(size 1.27 1.27)
						)
					)
				)
			)
			(pin bidirectional line
				(at -17.78 -20.32 0)
				(length 3.81)
				(name "IO_WB_A8"
					(effects
						(font
							(size 1.27 1.27)
						)
					)
				)
				(number "H3"
					(effects
						(font
							(size 1.27 1.27)
						)
					)
				)
			)
			(pin bidirectional line
				(at -17.78 -22.86 0)
				(length 3.81)
				(name "IO_WB_B8"
					(effects
						(font
							(size 1.27 1.27)
						)
					)
				)
				(number "H4"
					(effects
						(font
							(size 1.27 1.27)
						)
					)
				)
			)
			(pin power_in line
				(at -2.54 30.48 270)
				(length 3.81)
				(name "VDD_WB"
					(effects
						(font
							(size 1.27 1.27)
						)
					)
				)
				(number "H5"
					(effects
						(font
							(size 1.27 1.27)
						)
					)
				)
			)
			(pin passive line
				(at -2.54 30.48 270)
				(length 3.81) hide
				(name "VDD_WB"
					(effects
						(font
							(size 1.27 1.27)
						)
					)
				)
				(number "J2"
					(effects
						(font
							(size 1.27 1.27)
						)
					)
				)
			)
			(pin bidirectional line
				(at -17.78 -10.16 0)
				(length 3.81)
				(name "IO_WB_A6"
					(effects
						(font
							(size 1.27 1.27)
						)
					)
				)
				(number "J3"
					(effects
						(font
							(size 1.27 1.27)
						)
					)
				)
			)
			(pin bidirectional line
				(at -17.78 -12.7 0)
				(length 3.81)
				(name "IO_WB_B6"
					(effects
						(font
							(size 1.27 1.27)
						)
					)
				)
				(number "J4"
					(effects
						(font
							(size 1.27 1.27)
						)
					)
				)
			)
			(pin bidirectional line
				(at -17.78 -5.08 0)
				(length 3.81)
				(name "IO_WB_A5"
					(effects
						(font
							(size 1.27 1.27)
						)
					)
				)
				(number "K1"
					(effects
						(font
							(size 1.27 1.27)
						)
					)
				)
			)
			(pin bidirectional line
				(at -17.78 -7.62 0)
				(length 3.81)
				(name "IO_WB_B5"
					(effects
						(font
							(size 1.27 1.27)
						)
					)
				)
				(number "K2"
					(effects
						(font
							(size 1.27 1.27)
						)
					)
				)
			)
			(pin bidirectional line
				(at -17.78 0 0)
				(length 3.81)
				(name "IO_WB_A4"
					(effects
						(font
							(size 1.27 1.27)
						)
					)
				)
				(number "K3"
					(effects
						(font
							(size 1.27 1.27)
						)
					)
				)
			)
			(pin bidirectional line
				(at -17.78 -2.54 0)
				(length 3.81)
				(name "IO_WB_B4"
					(effects
						(font
							(size 1.27 1.27)
						)
					)
				)
				(number "K4"
					(effects
						(font
							(size 1.27 1.27)
						)
					)
				)
			)
			(pin passive line
				(at -2.54 30.48 270)
				(length 3.81) hide
				(name "VDD_WB"
					(effects
						(font
							(size 1.27 1.27)
						)
					)
				)
				(number "K5"
					(effects
						(font
							(size 1.27 1.27)
						)
					)
				)
			)
			(pin bidirectional line
				(at -17.78 7.62 0)
				(length 3.81)
				(name "IO_WB_A3"
					(effects
						(font
							(size 1.27 1.27)
						)
					)
				)
				(number "L1"
					(effects
						(font
							(size 1.27 1.27)
						)
					)
				)
			)
			(pin bidirectional line
				(at -17.78 5.08 0)
				(length 3.81)
				(name "IO_WB_B3"
					(effects
						(font
							(size 1.27 1.27)
						)
					)
				)
				(number "L2"
					(effects
						(font
							(size 1.27 1.27)
						)
					)
				)
			)
			(pin bidirectional line
				(at -17.78 12.7 0)
				(length 3.81)
				(name "IO_WB_A2"
					(effects
						(font
							(size 1.27 1.27)
						)
					)
				)
				(number "L3"
					(effects
						(font
							(size 1.27 1.27)
						)
					)
				)
			)
			(pin bidirectional line
				(at -17.78 10.16 0)
				(length 3.81)
				(name "IO_WB_B2"
					(effects
						(font
							(size 1.27 1.27)
						)
					)
				)
				(number "L4"
					(effects
						(font
							(size 1.27 1.27)
						)
					)
				)
			)
			(pin passive line
				(at -2.54 30.48 270)
				(length 3.81) hide
				(name "VDD_WB"
					(effects
						(font
							(size 1.27 1.27)
						)
					)
				)
				(number "M2"
					(effects
						(font
							(size 1.27 1.27)
						)
					)
				)
			)
			(pin bidirectional line
				(at -17.78 17.78 0)
				(length 3.81)
				(name "IO_WB_A1"
					(effects
						(font
							(size 1.27 1.27)
						)
					)
				)
				(number "M3"
					(effects
						(font
							(size 1.27 1.27)
						)
					)
				)
			)
			(pin bidirectional line
				(at -17.78 15.24 0)
				(length 3.81)
				(name "IO_WB_B1"
					(effects
						(font
							(size 1.27 1.27)
						)
					)
				)
				(number "M4"
					(effects
						(font
							(size 1.27 1.27)
						)
					)
				)
			)
			(pin passive line
				(at -2.54 30.48 270)
				(length 3.81) hide
				(name "VDD_WB"
					(effects
						(font
							(size 1.27 1.27)
						)
					)
				)
				(number "M5"
					(effects
						(font
							(size 1.27 1.27)
						)
					)
				)
			)
			(pin bidirectional line
				(at -17.78 22.86 0)
				(length 3.81)
				(name "IO_WB_A0"
					(effects
						(font
							(size 1.27 1.27)
						)
					)
				)
				(number "N1"
					(effects
						(font
							(size 1.27 1.27)
						)
					)
				)
			)
			(pin bidirectional line
				(at -17.78 20.32 0)
				(length 3.81)
				(name "IO_WB_B0"
					(effects
						(font
							(size 1.27 1.27)
						)
					)
				)
				(number "N2"
					(effects
						(font
							(size 1.27 1.27)
						)
					)
				)
			)
		)
		(symbol "CCGM1A1_7_1"
			(rectangle
				(start -10.16 11.43)
				(end 10.16 -11.43)
				(stroke
					(width 0.254)
					(type default)
				)
				(fill
					(type background)
				)
			)
			(text "Power"
				(at 2.54 -3.81 0)
				(effects
					(font
						(size 1.27 1.27)
					)
					(justify right)
				)
			)
			(pin power_in line
				(at 0 -15.24 90)
				(length 3.81)
				(name "GND"
					(effects
						(font
							(size 1.27 1.27)
						)
					)
				)
				(number "A1"
					(effects
						(font
							(size 1.27 1.27)
						)
					)
				)
			)
			(pin passive line
				(at 0 -15.24 90)
				(length 3.81) hide
				(name "GND"
					(effects
						(font
							(size 1.27 1.27)
						)
					)
				)
				(number "A10"
					(effects
						(font
							(size 1.27 1.27)
						)
					)
				)
			)
			(pin passive line
				(at 0 -15.24 90)
				(length 3.81) hide
				(name "GND"
					(effects
						(font
							(size 1.27 1.27)
						)
					)
				)
				(number "A13"
					(effects
						(font
							(size 1.27 1.27)
						)
					)
				)
			)
			(pin passive line
				(at 0 -15.24 90)
				(length 3.81) hide
				(name "GND"
					(effects
						(font
							(size 1.27 1.27)
						)
					)
				)
				(number "A18"
					(effects
						(font
							(size 1.27 1.27)
						)
					)
				)
			)
			(pin passive line
				(at 0 -15.24 90)
				(length 3.81) hide
				(name "GND"
					(effects
						(font
							(size 1.27 1.27)
						)
					)
				)
				(number "A7"
					(effects
						(font
							(size 1.27 1.27)
						)
					)
				)
			)
			(pin passive line
				(at 0 -15.24 90)
				(length 3.81) hide
				(name "GND"
					(effects
						(font
							(size 1.27 1.27)
						)
					)
				)
				(number "B16"
					(effects
						(font
							(size 1.27 1.27)
						)
					)
				)
			)
			(pin passive line
				(at 0 -15.24 90)
				(length 3.81) hide
				(name "GND"
					(effects
						(font
							(size 1.27 1.27)
						)
					)
				)
				(number "C1"
					(effects
						(font
							(size 1.27 1.27)
						)
					)
				)
			)
			(pin passive line
				(at 0 -15.24 90)
				(length 3.81) hide
				(name "GND"
					(effects
						(font
							(size 1.27 1.27)
						)
					)
				)
				(number "E11"
					(effects
						(font
							(size 1.27 1.27)
						)
					)
				)
			)
			(pin passive line
				(at 0 -15.24 90)
				(length 3.81) hide
				(name "GND"
					(effects
						(font
							(size 1.27 1.27)
						)
					)
				)
				(number "E13"
					(effects
						(font
							(size 1.27 1.27)
						)
					)
				)
			)
			(pin passive line
				(at 0 -15.24 90)
				(length 3.81) hide
				(name "GND"
					(effects
						(font
							(size 1.27 1.27)
						)
					)
				)
				(number "E18"
					(effects
						(font
							(size 1.27 1.27)
						)
					)
				)
			)
			(pin passive line
				(at 0 -15.24 90)
				(length 3.81) hide
				(name "GND"
					(effects
						(font
							(size 1.27 1.27)
						)
					)
				)
				(number "E5"
					(effects
						(font
							(size 1.27 1.27)
						)
					)
				)
			)
			(pin passive line
				(at 0 -15.24 90)
				(length 3.81) hide
				(name "GND"
					(effects
						(font
							(size 1.27 1.27)
						)
					)
				)
				(number "E7"
					(effects
						(font
							(size 1.27 1.27)
						)
					)
				)
			)
			(pin passive line
				(at 0 -15.24 90)
				(length 3.81) hide
				(name "GND"
					(effects
						(font
							(size 1.27 1.27)
						)
					)
				)
				(number "E9"
					(effects
						(font
							(size 1.27 1.27)
						)
					)
				)
			)
			(pin passive line
				(at 0 -15.24 90)
				(length 3.81) hide
				(name "GND"
					(effects
						(font
							(size 1.27 1.27)
						)
					)
				)
				(number "F1"
					(effects
						(font
							(size 1.27 1.27)
						)
					)
				)
			)
			(pin passive line
				(at 0 -15.24 90)
				(length 3.81) hide
				(name "GND"
					(effects
						(font
							(size 1.27 1.27)
						)
					)
				)
				(number "F10"
					(effects
						(font
							(size 1.27 1.27)
						)
					)
				)
			)
			(pin passive line
				(at 0 -15.24 90)
				(length 3.81) hide
				(name "GND"
					(effects
						(font
							(size 1.27 1.27)
						)
					)
				)
				(number "F12"
					(effects
						(font
							(size 1.27 1.27)
						)
					)
				)
			)
			(pin passive line
				(at 0 -15.24 90)
				(length 3.81) hide
				(name "GND"
					(effects
						(font
							(size 1.27 1.27)
						)
					)
				)
				(number "F14"
					(effects
						(font
							(size 1.27 1.27)
						)
					)
				)
			)
			(pin passive line
				(at 0 -15.24 90)
				(length 3.81) hide
				(name "GND"
					(effects
						(font
							(size 1.27 1.27)
						)
					)
				)
				(number "F6"
					(effects
						(font
							(size 1.27 1.27)
						)
					)
				)
			)
			(pin passive line
				(at 0 -15.24 90)
				(length 3.81) hide
				(name "GND"
					(effects
						(font
							(size 1.27 1.27)
						)
					)
				)
				(number "F8"
					(effects
						(font
							(size 1.27 1.27)
						)
					)
				)
			)
			(pin power_in line
				(at 7.62 15.24 270)
				(length 3.81)
				(name "VDD"
					(effects
						(font
							(size 1.27 1.27)
						)
					)
				)
				(number "F9"
					(effects
						(font
							(size 1.27 1.27)
						)
					)
				)
			)
			(pin passive line
				(at 7.62 15.24 270)
				(length 3.81) hide
				(name "VDD"
					(effects
						(font
							(size 1.27 1.27)
						)
					)
				)
				(number "G10"
					(effects
						(font
							(size 1.27 1.27)
						)
					)
				)
			)
			(pin passive line
				(at 0 -15.24 90)
				(length 3.81) hide
				(name "GND"
					(effects
						(font
							(size 1.27 1.27)
						)
					)
				)
				(number "G11"
					(effects
						(font
							(size 1.27 1.27)
						)
					)
				)
			)
			(pin passive line
				(at 7.62 15.24 270)
				(length 3.81) hide
				(name "VDD"
					(effects
						(font
							(size 1.27 1.27)
						)
					)
				)
				(number "G12"
					(effects
						(font
							(size 1.27 1.27)
						)
					)
				)
			)
			(pin passive line
				(at 0 -15.24 90)
				(length 3.81) hide
				(name "GND"
					(effects
						(font
							(size 1.27 1.27)
						)
					)
				)
				(number "G13"
					(effects
						(font
							(size 1.27 1.27)
						)
					)
				)
			)
			(pin passive line
				(at 0 -15.24 90)
				(length 3.81) hide
				(name "GND"
					(effects
						(font
							(size 1.27 1.27)
						)
					)
				)
				(number "G5"
					(effects
						(font
							(size 1.27 1.27)
						)
					)
				)
			)
			(pin passive line
				(at 7.62 15.24 270)
				(length 3.81) hide
				(name "VDD"
					(effects
						(font
							(size 1.27 1.27)
						)
					)
				)
				(number "G6"
					(effects
						(font
							(size 1.27 1.27)
						)
					)
				)
			)
			(pin passive line
				(at 0 -15.24 90)
				(length 3.81) hide
				(name "GND"
					(effects
						(font
							(size 1.27 1.27)
						)
					)
				)
				(number "G7"
					(effects
						(font
							(size 1.27 1.27)
						)
					)
				)
			)
			(pin passive line
				(at 7.62 15.24 270)
				(length 3.81) hide
				(name "VDD"
					(effects
						(font
							(size 1.27 1.27)
						)
					)
				)
				(number "G8"
					(effects
						(font
							(size 1.27 1.27)
						)
					)
				)
			)
			(pin passive line
				(at 0 -15.24 90)
				(length 3.81) hide
				(name "GND"
					(effects
						(font
							(size 1.27 1.27)
						)
					)
				)
				(number "G9"
					(effects
						(font
							(size 1.27 1.27)
						)
					)
				)
			)
			(pin passive line
				(at 0 -15.24 90)
				(length 3.81) hide
				(name "GND"
					(effects
						(font
							(size 1.27 1.27)
						)
					)
				)
				(number "H10"
					(effects
						(font
							(size 1.27 1.27)
						)
					)
				)
			)
			(pin passive line
				(at 7.62 15.24 270)
				(length 3.81) hide
				(name "VDD"
					(effects
						(font
							(size 1.27 1.27)
						)
					)
				)
				(number "H11"
					(effects
						(font
							(size 1.27 1.27)
						)
					)
				)
			)
			(pin passive line
				(at 0 -15.24 90)
				(length 3.81) hide
				(name "GND"
					(effects
						(font
							(size 1.27 1.27)
						)
					)
				)
				(number "H12"
					(effects
						(font
							(size 1.27 1.27)
						)
					)
				)
			)
			(pin passive line
				(at 7.62 15.24 270)
				(length 3.81) hide
				(name "VDD"
					(effects
						(font
							(size 1.27 1.27)
						)
					)
				)
				(number "H13"
					(effects
						(font
							(size 1.27 1.27)
						)
					)
				)
			)
			(pin passive line
				(at 0 -15.24 90)
				(length 3.81) hide
				(name "GND"
					(effects
						(font
							(size 1.27 1.27)
						)
					)
				)
				(number "H14"
					(effects
						(font
							(size 1.27 1.27)
						)
					)
				)
			)
			(pin passive line
				(at 0 -15.24 90)
				(length 3.81) hide
				(name "GND"
					(effects
						(font
							(size 1.27 1.27)
						)
					)
				)
				(number "H18"
					(effects
						(font
							(size 1.27 1.27)
						)
					)
				)
			)
			(pin passive line
				(at 0 -15.24 90)
				(length 3.81) hide
				(name "GND"
					(effects
						(font
							(size 1.27 1.27)
						)
					)
				)
				(number "H6"
					(effects
						(font
							(size 1.27 1.27)
						)
					)
				)
			)
			(pin passive line
				(at 7.62 15.24 270)
				(length 3.81) hide
				(name "VDD"
					(effects
						(font
							(size 1.27 1.27)
						)
					)
				)
				(number "H7"
					(effects
						(font
							(size 1.27 1.27)
						)
					)
				)
			)
			(pin passive line
				(at 0 -15.24 90)
				(length 3.81) hide
				(name "GND"
					(effects
						(font
							(size 1.27 1.27)
						)
					)
				)
				(number "H8"
					(effects
						(font
							(size 1.27 1.27)
						)
					)
				)
			)
			(pin passive line
				(at 7.62 15.24 270)
				(length 3.81) hide
				(name "VDD"
					(effects
						(font
							(size 1.27 1.27)
						)
					)
				)
				(number "H9"
					(effects
						(font
							(size 1.27 1.27)
						)
					)
				)
			)
			(pin passive line
				(at 0 -15.24 90)
				(length 3.81) hide
				(name "GND"
					(effects
						(font
							(size 1.27 1.27)
						)
					)
				)
				(number "J1"
					(effects
						(font
							(size 1.27 1.27)
						)
					)
				)
			)
			(pin passive line
				(at 7.62 15.24 270)
				(length 3.81) hide
				(name "VDD"
					(effects
						(font
							(size 1.27 1.27)
						)
					)
				)
				(number "J10"
					(effects
						(font
							(size 1.27 1.27)
						)
					)
				)
			)
			(pin passive line
				(at 0 -15.24 90)
				(length 3.81) hide
				(name "GND"
					(effects
						(font
							(size 1.27 1.27)
						)
					)
				)
				(number "J11"
					(effects
						(font
							(size 1.27 1.27)
						)
					)
				)
			)
			(pin passive line
				(at 7.62 15.24 270)
				(length 3.81) hide
				(name "VDD"
					(effects
						(font
							(size 1.27 1.27)
						)
					)
				)
				(number "J12"
					(effects
						(font
							(size 1.27 1.27)
						)
					)
				)
			)
			(pin passive line
				(at 0 -15.24 90)
				(length 3.81) hide
				(name "GND"
					(effects
						(font
							(size 1.27 1.27)
						)
					)
				)
				(number "J13"
					(effects
						(font
							(size 1.27 1.27)
						)
					)
				)
			)
			(pin passive line
				(at 0 -15.24 90)
				(length 3.81) hide
				(name "GND"
					(effects
						(font
							(size 1.27 1.27)
						)
					)
				)
				(number "J5"
					(effects
						(font
							(size 1.27 1.27)
						)
					)
				)
			)
			(pin passive line
				(at 7.62 15.24 270)
				(length 3.81) hide
				(name "VDD"
					(effects
						(font
							(size 1.27 1.27)
						)
					)
				)
				(number "J6"
					(effects
						(font
							(size 1.27 1.27)
						)
					)
				)
			)
			(pin passive line
				(at 0 -15.24 90)
				(length 3.81) hide
				(name "GND"
					(effects
						(font
							(size 1.27 1.27)
						)
					)
				)
				(number "J7"
					(effects
						(font
							(size 1.27 1.27)
						)
					)
				)
			)
			(pin passive line
				(at 7.62 15.24 270)
				(length 3.81) hide
				(name "VDD"
					(effects
						(font
							(size 1.27 1.27)
						)
					)
				)
				(number "J8"
					(effects
						(font
							(size 1.27 1.27)
						)
					)
				)
			)
			(pin passive line
				(at 0 -15.24 90)
				(length 3.81) hide
				(name "GND"
					(effects
						(font
							(size 1.27 1.27)
						)
					)
				)
				(number "J9"
					(effects
						(font
							(size 1.27 1.27)
						)
					)
				)
			)
			(pin passive line
				(at 0 -15.24 90)
				(length 3.81) hide
				(name "GND"
					(effects
						(font
							(size 1.27 1.27)
						)
					)
				)
				(number "K10"
					(effects
						(font
							(size 1.27 1.27)
						)
					)
				)
			)
			(pin passive line
				(at 7.62 15.24 270)
				(length 3.81) hide
				(name "VDD"
					(effects
						(font
							(size 1.27 1.27)
						)
					)
				)
				(number "K11"
					(effects
						(font
							(size 1.27 1.27)
						)
					)
				)
			)
			(pin passive line
				(at 0 -15.24 90)
				(length 3.81) hide
				(name "GND"
					(effects
						(font
							(size 1.27 1.27)
						)
					)
				)
				(number "K12"
					(effects
						(font
							(size 1.27 1.27)
						)
					)
				)
			)
			(pin passive line
				(at 7.62 15.24 270)
				(length 3.81) hide
				(name "VDD"
					(effects
						(font
							(size 1.27 1.27)
						)
					)
				)
				(number "K13"
					(effects
						(font
							(size 1.27 1.27)
						)
					)
				)
			)
			(pin passive line
				(at 0 -15.24 90)
				(length 3.81) hide
				(name "GND"
					(effects
						(font
							(size 1.27 1.27)
						)
					)
				)
				(number "K14"
					(effects
						(font
							(size 1.27 1.27)
						)
					)
				)
			)
			(pin passive line
				(at 0 -15.24 90)
				(length 3.81) hide
				(name "GND"
					(effects
						(font
							(size 1.27 1.27)
						)
					)
				)
				(number "K6"
					(effects
						(font
							(size 1.27 1.27)
						)
					)
				)
			)
			(pin passive line
				(at 7.62 15.24 270)
				(length 3.81) hide
				(name "VDD"
					(effects
						(font
							(size 1.27 1.27)
						)
					)
				)
				(number "K7"
					(effects
						(font
							(size 1.27 1.27)
						)
					)
				)
			)
			(pin passive line
				(at 0 -15.24 90)
				(length 3.81) hide
				(name "GND"
					(effects
						(font
							(size 1.27 1.27)
						)
					)
				)
				(number "K8"
					(effects
						(font
							(size 1.27 1.27)
						)
					)
				)
			)
			(pin passive line
				(at 7.62 15.24 270)
				(length 3.81) hide
				(name "VDD"
					(effects
						(font
							(size 1.27 1.27)
						)
					)
				)
				(number "K9"
					(effects
						(font
							(size 1.27 1.27)
						)
					)
				)
			)
			(pin passive line
				(at 7.62 15.24 270)
				(length 3.81) hide
				(name "VDD"
					(effects
						(font
							(size 1.27 1.27)
						)
					)
				)
				(number "L10"
					(effects
						(font
							(size 1.27 1.27)
						)
					)
				)
			)
			(pin passive line
				(at 0 -15.24 90)
				(length 3.81) hide
				(name "GND"
					(effects
						(font
							(size 1.27 1.27)
						)
					)
				)
				(number "L11"
					(effects
						(font
							(size 1.27 1.27)
						)
					)
				)
			)
			(pin passive line
				(at 7.62 15.24 270)
				(length 3.81) hide
				(name "VDD"
					(effects
						(font
							(size 1.27 1.27)
						)
					)
				)
				(number "L12"
					(effects
						(font
							(size 1.27 1.27)
						)
					)
				)
			)
			(pin passive line
				(at 0 -15.24 90)
				(length 3.81) hide
				(name "GND"
					(effects
						(font
							(size 1.27 1.27)
						)
					)
				)
				(number "L13"
					(effects
						(font
							(size 1.27 1.27)
						)
					)
				)
			)
			(pin passive line
				(at 0 -15.24 90)
				(length 3.81) hide
				(name "GND"
					(effects
						(font
							(size 1.27 1.27)
						)
					)
				)
				(number "L18"
					(effects
						(font
							(size 1.27 1.27)
						)
					)
				)
			)
			(pin passive line
				(at 0 -15.24 90)
				(length 3.81) hide
				(name "GND"
					(effects
						(font
							(size 1.27 1.27)
						)
					)
				)
				(number "L5"
					(effects
						(font
							(size 1.27 1.27)
						)
					)
				)
			)
			(pin passive line
				(at 7.62 15.24 270)
				(length 3.81) hide
				(name "VDD"
					(effects
						(font
							(size 1.27 1.27)
						)
					)
				)
				(number "L6"
					(effects
						(font
							(size 1.27 1.27)
						)
					)
				)
			)
			(pin passive line
				(at 0 -15.24 90)
				(length 3.81) hide
				(name "GND"
					(effects
						(font
							(size 1.27 1.27)
						)
					)
				)
				(number "L7"
					(effects
						(font
							(size 1.27 1.27)
						)
					)
				)
			)
			(pin passive line
				(at 7.62 15.24 270)
				(length 3.81) hide
				(name "VDD"
					(effects
						(font
							(size 1.27 1.27)
						)
					)
				)
				(number "L8"
					(effects
						(font
							(size 1.27 1.27)
						)
					)
				)
			)
			(pin passive line
				(at 0 -15.24 90)
				(length 3.81) hide
				(name "GND"
					(effects
						(font
							(size 1.27 1.27)
						)
					)
				)
				(number "L9"
					(effects
						(font
							(size 1.27 1.27)
						)
					)
				)
			)
			(pin passive line
				(at 0 -15.24 90)
				(length 3.81) hide
				(name "GND"
					(effects
						(font
							(size 1.27 1.27)
						)
					)
				)
				(number "M1"
					(effects
						(font
							(size 1.27 1.27)
						)
					)
				)
			)
			(pin passive line
				(at 0 -15.24 90)
				(length 3.81) hide
				(name "GND"
					(effects
						(font
							(size 1.27 1.27)
						)
					)
				)
				(number "M10"
					(effects
						(font
							(size 1.27 1.27)
						)
					)
				)
			)
			(pin passive line
				(at 7.62 15.24 270)
				(length 3.81) hide
				(name "VDD"
					(effects
						(font
							(size 1.27 1.27)
						)
					)
				)
				(number "M11"
					(effects
						(font
							(size 1.27 1.27)
						)
					)
				)
			)
			(pin passive line
				(at 0 -15.24 90)
				(length 3.81) hide
				(name "GND"
					(effects
						(font
							(size 1.27 1.27)
						)
					)
				)
				(number "M12"
					(effects
						(font
							(size 1.27 1.27)
						)
					)
				)
			)
			(pin passive line
				(at 7.62 15.24 270)
				(length 3.81) hide
				(name "VDD"
					(effects
						(font
							(size 1.27 1.27)
						)
					)
				)
				(number "M13"
					(effects
						(font
							(size 1.27 1.27)
						)
					)
				)
			)
			(pin passive line
				(at 0 -15.24 90)
				(length 3.81) hide
				(name "GND"
					(effects
						(font
							(size 1.27 1.27)
						)
					)
				)
				(number "M16"
					(effects
						(font
							(size 1.27 1.27)
						)
					)
				)
			)
			(pin passive line
				(at 0 -15.24 90)
				(length 3.81) hide
				(name "GND"
					(effects
						(font
							(size 1.27 1.27)
						)
					)
				)
				(number "M6"
					(effects
						(font
							(size 1.27 1.27)
						)
					)
				)
			)
			(pin passive line
				(at 7.62 15.24 270)
				(length 3.81) hide
				(name "VDD"
					(effects
						(font
							(size 1.27 1.27)
						)
					)
				)
				(number "M7"
					(effects
						(font
							(size 1.27 1.27)
						)
					)
				)
			)
			(pin passive line
				(at 0 -15.24 90)
				(length 3.81) hide
				(name "GND"
					(effects
						(font
							(size 1.27 1.27)
						)
					)
				)
				(number "M8"
					(effects
						(font
							(size 1.27 1.27)
						)
					)
				)
			)
			(pin passive line
				(at 7.62 15.24 270)
				(length 3.81) hide
				(name "VDD"
					(effects
						(font
							(size 1.27 1.27)
						)
					)
				)
				(number "M9"
					(effects
						(font
							(size 1.27 1.27)
						)
					)
				)
			)
			(pin passive line
				(at 7.62 15.24 270)
				(length 3.81) hide
				(name "VDD"
					(effects
						(font
							(size 1.27 1.27)
						)
					)
				)
				(number "N10"
					(effects
						(font
							(size 1.27 1.27)
						)
					)
				)
			)
			(pin passive line
				(at 0 -15.24 90)
				(length 3.81) hide
				(name "GND"
					(effects
						(font
							(size 1.27 1.27)
						)
					)
				)
				(number "N12"
					(effects
						(font
							(size 1.27 1.27)
						)
					)
				)
			)
			(pin no_connect line
				(at 10.16 -7.62 180)
				(length 3.81) hide
				(name "NC"
					(effects
						(font
							(size 1.27 1.27)
						)
					)
				)
				(number "N16"
					(effects
						(font
							(size 1.27 1.27)
						)
					)
				)
			)
			(pin passive line
				(at 0 -15.24 90)
				(length 3.81) hide
				(name "GND"
					(effects
						(font
							(size 1.27 1.27)
						)
					)
				)
				(number "N17"
					(effects
						(font
							(size 1.27 1.27)
						)
					)
				)
			)
			(pin passive line
				(at 7.62 15.24 270)
				(length 3.81) hide
				(name "VDD"
					(effects
						(font
							(size 1.27 1.27)
						)
					)
				)
				(number "N6"
					(effects
						(font
							(size 1.27 1.27)
						)
					)
				)
			)
			(pin passive line
				(at 0 -15.24 90)
				(length 3.81) hide
				(name "GND"
					(effects
						(font
							(size 1.27 1.27)
						)
					)
				)
				(number "N7"
					(effects
						(font
							(size 1.27 1.27)
						)
					)
				)
			)
			(pin passive line
				(at 7.62 15.24 270)
				(length 3.81) hide
				(name "VDD"
					(effects
						(font
							(size 1.27 1.27)
						)
					)
				)
				(number "N8"
					(effects
						(font
							(size 1.27 1.27)
						)
					)
				)
			)
			(pin passive line
				(at 0 -15.24 90)
				(length 3.81) hide
				(name "GND"
					(effects
						(font
							(size 1.27 1.27)
						)
					)
				)
				(number "N9"
					(effects
						(font
							(size 1.27 1.27)
						)
					)
				)
			)
			(pin power_in line
				(at 2.54 15.24 270)
				(length 3.81)
				(name "VDD_PLL"
					(effects
						(font
							(size 1.27 1.27)
						)
					)
				)
				(number "P16"
					(effects
						(font
							(size 1.27 1.27)
						)
					)
				)
			)
			(pin passive line
				(at 0 -15.24 90)
				(length 3.81) hide
				(name "GND"
					(effects
						(font
							(size 1.27 1.27)
						)
					)
				)
				(number "P4"
					(effects
						(font
							(size 1.27 1.27)
						)
					)
				)
			)
			(pin passive line
				(at 0 -15.24 90)
				(length 3.81) hide
				(name "GND"
					(effects
						(font
							(size 1.27 1.27)
						)
					)
				)
				(number "P7"
					(effects
						(font
							(size 1.27 1.27)
						)
					)
				)
			)
			(pin passive line
				(at 0 -15.24 90)
				(length 3.81) hide
				(name "GND"
					(effects
						(font
							(size 1.27 1.27)
						)
					)
				)
				(number "P9"
					(effects
						(font
							(size 1.27 1.27)
						)
					)
				)
			)
			(pin passive line
				(at 0 -15.24 90)
				(length 3.81) hide
				(name "GND"
					(effects
						(font
							(size 1.27 1.27)
						)
					)
				)
				(number "R12"
					(effects
						(font
							(size 1.27 1.27)
						)
					)
				)
			)
			(pin passive line
				(at 0 -15.24 90)
				(length 3.81) hide
				(name "GND"
					(effects
						(font
							(size 1.27 1.27)
						)
					)
				)
				(number "R16"
					(effects
						(font
							(size 1.27 1.27)
						)
					)
				)
			)
			(pin passive line
				(at 0 -15.24 90)
				(length 3.81) hide
				(name "GND"
					(effects
						(font
							(size 1.27 1.27)
						)
					)
				)
				(number "T11"
					(effects
						(font
							(size 1.27 1.27)
						)
					)
				)
			)
			(pin power_in line
				(at -2.54 15.24 270)
				(length 3.81)
				(name "VDD_SER_PLL"
					(effects
						(font
							(size 1.27 1.27)
						)
					)
				)
				(number "T16"
					(effects
						(font
							(size 1.27 1.27)
						)
					)
				)
			)
			(pin passive line
				(at 0 -15.24 90)
				(length 3.81) hide
				(name "GND"
					(effects
						(font
							(size 1.27 1.27)
						)
					)
				)
				(number "T17"
					(effects
						(font
							(size 1.27 1.27)
						)
					)
				)
			)
			(pin passive line
				(at 0 -15.24 90)
				(length 3.81) hide
				(name "GND"
					(effects
						(font
							(size 1.27 1.27)
						)
					)
				)
				(number "T4"
					(effects
						(font
							(size 1.27 1.27)
						)
					)
				)
			)
			(pin power_in line
				(at -7.62 15.24 270)
				(length 3.81)
				(name "VDD_SER"
					(effects
						(font
							(size 1.27 1.27)
						)
					)
				)
				(number "U12"
					(effects
						(font
							(size 1.27 1.27)
						)
					)
				)
			)
			(pin passive line
				(at 0 -15.24 90)
				(length 3.81) hide
				(name "GND"
					(effects
						(font
							(size 1.27 1.27)
						)
					)
				)
				(number "U14"
					(effects
						(font
							(size 1.27 1.27)
						)
					)
				)
			)
			(pin passive line
				(at 0 -15.24 90)
				(length 3.81) hide
				(name "GND"
					(effects
						(font
							(size 1.27 1.27)
						)
					)
				)
				(number "U15"
					(effects
						(font
							(size 1.27 1.27)
						)
					)
				)
			)
			(pin passive line
				(at 0 -15.24 90)
				(length 3.81) hide
				(name "GND"
					(effects
						(font
							(size 1.27 1.27)
						)
					)
				)
				(number "U16"
					(effects
						(font
							(size 1.27 1.27)
						)
					)
				)
			)
			(pin passive line
				(at 0 -15.24 90)
				(length 3.81) hide
				(name "GND"
					(effects
						(font
							(size 1.27 1.27)
						)
					)
				)
				(number "V1"
					(effects
						(font
							(size 1.27 1.27)
						)
					)
				)
			)
			(pin passive line
				(at 0 -15.24 90)
				(length 3.81) hide
				(name "GND"
					(effects
						(font
							(size 1.27 1.27)
						)
					)
				)
				(number "V14"
					(effects
						(font
							(size 1.27 1.27)
						)
					)
				)
			)
			(pin passive line
				(at 0 -15.24 90)
				(length 3.81) hide
				(name "GND"
					(effects
						(font
							(size 1.27 1.27)
						)
					)
				)
				(number "V16"
					(effects
						(font
							(size 1.27 1.27)
						)
					)
				)
			)
			(pin passive line
				(at -7.62 15.24 270)
				(length 3.81) hide
				(name "VDD_SER"
					(effects
						(font
							(size 1.27 1.27)
						)
					)
				)
				(number "V17"
					(effects
						(font
							(size 1.27 1.27)
						)
					)
				)
			)
			(pin passive line
				(at 0 -15.24 90)
				(length 3.81) hide
				(name "GND"
					(effects
						(font
							(size 1.27 1.27)
						)
					)
				)
				(number "V18"
					(effects
						(font
							(size 1.27 1.27)
						)
					)
				)
			)
			(pin passive line
				(at 0 -15.24 90)
				(length 3.81) hide
				(name "GND"
					(effects
						(font
							(size 1.27 1.27)
						)
					)
				)
				(number "V6"
					(effects
						(font
							(size 1.27 1.27)
						)
					)
				)
			)
			(pin passive line
				(at 0 -15.24 90)
				(length 3.81) hide
				(name "GND"
					(effects
						(font
							(size 1.27 1.27)
						)
					)
				)
				(number "V9"
					(effects
						(font
							(size 1.27 1.27)
						)
					)
				)
			)
		)
		(symbol "CCGM1A1_8_1"
			(rectangle
				(start -11.43 8.89)
				(end 11.43 -8.89)
				(stroke
					(width 0.254)
					(type default)
				)
				(fill
					(type background)
				)
			)
			(pin input line
				(at -15.24 2.54 0)
				(length 3.81)
				(name "SER_CLK"
					(effects
						(font
							(size 1.27 1.27)
						)
					)
				)
				(number "T12"
					(effects
						(font
							(size 1.27 1.27)
						)
					)
				)
			)
			(pin input line
				(at -15.24 -2.54 0)
				(length 3.81)
				(name "SER_CLK_N"
					(effects
						(font
							(size 1.27 1.27)
						)
					)
				)
				(number "T13"
					(effects
						(font
							(size 1.27 1.27)
						)
					)
				)
			)
			(pin power_in line
				(at 0 12.7 270)
				(length 3.81)
				(name "VDD_CLK"
					(effects
						(font
							(size 1.27 1.27)
						)
					)
				)
				(number "T14"
					(effects
						(font
							(size 1.27 1.27)
						)
					)
				)
			)
			(pin input line
				(at 15.24 2.54 180)
				(length 3.81)
				(name "~{RESET}"
					(effects
						(font
							(size 1.27 1.27)
						)
					)
				)
				(number "T15"
					(effects
						(font
							(size 1.27 1.27)
						)
					)
				)
			)
			(pin passive line
				(at 15.24 -2.54 180)
				(length 3.81)
				(name "POR_ADJ"
					(effects
						(font
							(size 1.27 1.27)
						)
					)
				)
				(number "V15"
					(effects
						(font
							(size 1.27 1.27)
						)
					)
				)
			)
		)
	)
)