(kicad_symbol_lib
	(version 20231120)
	(generator "kicad_symbol_editor")
	(generator_version "8.0")
	(symbol "FX614"
		(pin_names
			(offset 1.016)
		)
		(exclude_from_sim no)
		(in_bom yes)
		(on_board yes)
		(property "Reference" "U"
			(at -11.43 20.32 0)
			(effects
				(font
					(size 1.27 1.27)
				)
				(justify left)
			)
		)
		(property "Value" "FX614"
			(at 6.35 20.32 0)
			(effects
				(font
					(size 1.27 1.27)
				)
				(justify left)
			)
		)
		(property "Footprint" ""
			(at 0 0 0)
			(effects
				(font
					(size 1.27 1.27)
				)
				(hide yes)
			)
		)
		(property "Datasheet" "https://www.cmlmicro.com/wp-content/uploads/2017/06/FX614_ds.pdf"
			(at 0 0 0)
			(effects
				(font
					(size 1.27 1.27)
				)
				(hide yes)
			)
		)
		(property "Description" "Bell 202 Compatible Modem, DIP-16/SO-16"
			(at 0 0 0)
			(effects
				(font
					(size 1.27 1.27)
				)
				(hide yes)
			)
		)
		(property "ki_keywords" "Bell Modem"
			(at 0 0 0)
			(effects
				(font
					(size 1.27 1.27)
				)
				(hide yes)
			)
		)
		(property "ki_fp_filters" "DIP* PDIP* SO*"
			(at 0 0 0)
			(effects
				(font
					(size 1.27 1.27)
				)
				(hide yes)
			)
		)
		(symbol "FX614_0_1"
			(rectangle
				(start -11.43 19.05)
				(end 11.43 -19.05)
				(stroke
					(width 0.254)
					(type default)
				)
				(fill
					(type background)
				)
			)
		)
		(symbol "FX614_1_1"
			(pin output line
				(at -15.24 -15.24 0)
				(length 3.81)
				(name "XTALN"
					(effects
						(font
							(size 1.27 1.27)
						)
					)
				)
				(number "1"
					(effects
						(font
							(size 1.27 1.27)
						)
					)
				)
			)
			(pin input line
				(at 15.24 15.24 180)
				(length 3.81)
				(name "RXEQ"
					(effects
						(font
							(size 1.27 1.27)
						)
					)
				)
				(number "10"
					(effects
						(font
							(size 1.27 1.27)
						)
					)
				)
			)
			(pin input line
				(at 15.24 2.54 180)
				(length 3.81)
				(name "TXD"
					(effects
						(font
							(size 1.27 1.27)
						)
					)
				)
				(number "11"
					(effects
						(font
							(size 1.27 1.27)
						)
					)
				)
			)
			(pin input clock
				(at 15.24 7.62 180)
				(length 3.81)
				(name "CLK"
					(effects
						(font
							(size 1.27 1.27)
						)
					)
				)
				(number "12"
					(effects
						(font
							(size 1.27 1.27)
						)
					)
				)
			)
			(pin output line
				(at 15.24 10.16 180)
				(length 3.81)
				(name "RXD"
					(effects
						(font
							(size 1.27 1.27)
						)
					)
				)
				(number "13"
					(effects
						(font
							(size 1.27 1.27)
						)
					)
				)
			)
			(pin output line
				(at 15.24 -2.54 180)
				(length 3.81)
				(name "DET"
					(effects
						(font
							(size 1.27 1.27)
						)
					)
				)
				(number "14"
					(effects
						(font
							(size 1.27 1.27)
						)
					)
				)
			)
			(pin output line
				(at 15.24 5.08 180)
				(length 3.81)
				(name "~{RDYN}"
					(effects
						(font
							(size 1.27 1.27)
						)
					)
				)
				(number "15"
					(effects
						(font
							(size 1.27 1.27)
						)
					)
				)
			)
			(pin power_in line
				(at 0 22.86 270)
				(length 3.81)
				(name "VDD"
					(effects
						(font
							(size 1.27 1.27)
						)
					)
				)
				(number "16"
					(effects
						(font
							(size 1.27 1.27)
						)
					)
				)
			)
			(pin input line
				(at -15.24 -10.16 0)
				(length 3.81)
				(name "XTAL/CLK"
					(effects
						(font
							(size 1.27 1.27)
						)
					)
				)
				(number "2"
					(effects
						(font
							(size 1.27 1.27)
						)
					)
				)
			)
			(pin input line
				(at 15.24 -7.62 180)
				(length 3.81)
				(name "M0"
					(effects
						(font
							(size 1.27 1.27)
						)
					)
				)
				(number "3"
					(effects
						(font
							(size 1.27 1.27)
						)
					)
				)
			)
			(pin input line
				(at 15.24 -10.16 180)
				(length 3.81)
				(name "M1"
					(effects
						(font
							(size 1.27 1.27)
						)
					)
				)
				(number "4"
					(effects
						(font
							(size 1.27 1.27)
						)
					)
				)
			)
			(pin input line
				(at -15.24 10.16 0)
				(length 3.81)
				(name "RXIN"
					(effects
						(font
							(size 1.27 1.27)
						)
					)
				)
				(number "5"
					(effects
						(font
							(size 1.27 1.27)
						)
					)
				)
			)
			(pin output line
				(at -15.24 15.24 0)
				(length 3.81)
				(name "RXFB"
					(effects
						(font
							(size 1.27 1.27)
						)
					)
				)
				(number "6"
					(effects
						(font
							(size 1.27 1.27)
						)
					)
				)
			)
			(pin output line
				(at -15.24 2.54 0)
				(length 3.81)
				(name "TXOP"
					(effects
						(font
							(size 1.27 1.27)
						)
					)
				)
				(number "7"
					(effects
						(font
							(size 1.27 1.27)
						)
					)
				)
			)
			(pin power_in line
				(at 0 -22.86 90)
				(length 3.81)
				(name "VSS"
					(effects
						(font
							(size 1.27 1.27)
						)
					)
				)
				(number "8"
					(effects
						(font
							(size 1.27 1.27)
						)
					)
				)
			)
			(pin passive line
				(at 15.24 -15.24 180)
				(length 3.81)
				(name "VBIAS"
					(effects
						(font
							(size 1.27 1.27)
						)
					)
				)
				(number "9"
					(effects
						(font
							(size 1.27 1.27)
						)
					)
				)
			)
		)
	)
	(symbol "HT9170D"
		(exclude_from_sim no)
		(in_bom yes)
		(on_board yes)
		(property "Reference" "U"
			(at -10.16 16.51 0)
			(effects
				(font
					(size 1.27 1.27)
				)
				(justify left)
			)
		)
		(property "Value" "HT9170D"
			(at 1.27 16.51 0)
			(effects
				(font
					(size 1.27 1.27)
				)
				(justify left)
			)
		)
		(property "Footprint" "Package_SO:SOIC-18W_7.5x11.6mm_P1.27mm"
			(at 0 -16.51 0)
			(effects
				(font
					(size 1.27 1.27)
				)
				(hide yes)
			)
		)
		(property "Datasheet" "http://www.holtek.com/documents/10179/116711/9170v111.pdf"
			(at -2.54 17.78 0)
			(effects
				(font
					(size 1.27 1.27)
				)
				(hide yes)
			)
		)
		(property "Description" "DTMF receiver with 4 bit output, SOIC-18"
			(at 0 0 0)
			(effects
				(font
					(size 1.27 1.27)
				)
				(hide yes)
			)
		)
		(property "ki_keywords" "DTMF Receiver"
			(at 0 0 0)
			(effects
				(font
					(size 1.27 1.27)
				)
				(hide yes)
			)
		)
		(property "ki_fp_filters" "SOIC*7.5x11.6mm*P1.27mm*"
			(at 0 0 0)
			(effects
				(font
					(size 1.27 1.27)
				)
				(hide yes)
			)
		)
		(symbol "HT9170D_0_1"
			(rectangle
				(start -10.16 15.24)
				(end 10.16 -15.24)
				(stroke
					(width 0.254)
					(type default)
				)
				(fill
					(type background)
				)
			)
		)
		(symbol "HT9170D_1_1"
			(pin input line
				(at -12.7 12.7 0)
				(length 2.54)
				(name "VP"
					(effects
						(font
							(size 1.27 1.27)
						)
					)
				)
				(number "1"
					(effects
						(font
							(size 1.27 1.27)
						)
					)
				)
			)
			(pin input line
				(at -12.7 -5.08 0)
				(length 2.54)
				(name "OE"
					(effects
						(font
							(size 1.27 1.27)
						)
					)
				)
				(number "10"
					(effects
						(font
							(size 1.27 1.27)
						)
					)
				)
			)
			(pin tri_state line
				(at 12.7 -5.08 180)
				(length 2.54)
				(name "D0"
					(effects
						(font
							(size 1.27 1.27)
						)
					)
				)
				(number "11"
					(effects
						(font
							(size 1.27 1.27)
						)
					)
				)
			)
			(pin tri_state line
				(at 12.7 -2.54 180)
				(length 2.54)
				(name "D1"
					(effects
						(font
							(size 1.27 1.27)
						)
					)
				)
				(number "12"
					(effects
						(font
							(size 1.27 1.27)
						)
					)
				)
			)
			(pin tri_state line
				(at 12.7 0 180)
				(length 2.54)
				(name "D2"
					(effects
						(font
							(size 1.27 1.27)
						)
					)
				)
				(number "13"
					(effects
						(font
							(size 1.27 1.27)
						)
					)
				)
			)
			(pin tri_state line
				(at 12.7 2.54 180)
				(length 2.54)
				(name "D3"
					(effects
						(font
							(size 1.27 1.27)
						)
					)
				)
				(number "14"
					(effects
						(font
							(size 1.27 1.27)
						)
					)
				)
			)
			(pin output line
				(at 12.7 5.08 180)
				(length 2.54)
				(name "DV"
					(effects
						(font
							(size 1.27 1.27)
						)
					)
				)
				(number "15"
					(effects
						(font
							(size 1.27 1.27)
						)
					)
				)
			)
			(pin output line
				(at 12.7 10.16 180)
				(length 2.54)
				(name "EST"
					(effects
						(font
							(size 1.27 1.27)
						)
					)
				)
				(number "16"
					(effects
						(font
							(size 1.27 1.27)
						)
					)
				)
			)
			(pin bidirectional line
				(at 12.7 12.7 180)
				(length 2.54)
				(name "RT/GT"
					(effects
						(font
							(size 1.27 1.27)
						)
					)
				)
				(number "17"
					(effects
						(font
							(size 1.27 1.27)
						)
					)
				)
			)
			(pin power_in line
				(at 0 17.78 270)
				(length 2.54)
				(name "VDD"
					(effects
						(font
							(size 1.27 1.27)
						)
					)
				)
				(number "18"
					(effects
						(font
							(size 1.27 1.27)
						)
					)
				)
			)
			(pin input line
				(at -12.7 10.16 0)
				(length 2.54)
				(name "VN"
					(effects
						(font
							(size 1.27 1.27)
						)
					)
				)
				(number "2"
					(effects
						(font
							(size 1.27 1.27)
						)
					)
				)
			)
			(pin output line
				(at -12.7 7.62 0)
				(length 2.54)
				(name "GS"
					(effects
						(font
							(size 1.27 1.27)
						)
					)
				)
				(number "3"
					(effects
						(font
							(size 1.27 1.27)
						)
					)
				)
			)
			(pin power_out line
				(at -12.7 2.54 0)
				(length 2.54)
				(name "VREF"
					(effects
						(font
							(size 1.27 1.27)
						)
					)
				)
				(number "4"
					(effects
						(font
							(size 1.27 1.27)
						)
					)
				)
			)
			(pin input line
				(at -12.7 0 0)
				(length 2.54)
				(name "INH"
					(effects
						(font
							(size 1.27 1.27)
						)
					)
				)
				(number "5"
					(effects
						(font
							(size 1.27 1.27)
						)
					)
				)
			)
			(pin input line
				(at -12.7 -2.54 0)
				(length 2.54)
				(name "PWDN"
					(effects
						(font
							(size 1.27 1.27)
						)
					)
				)
				(number "6"
					(effects
						(font
							(size 1.27 1.27)
						)
					)
				)
			)
			(pin input line
				(at -12.7 -10.16 0)
				(length 2.54)
				(name "X1"
					(effects
						(font
							(size 1.27 1.27)
						)
					)
				)
				(number "7"
					(effects
						(font
							(size 1.27 1.27)
						)
					)
				)
			)
			(pin output line
				(at -12.7 -12.7 0)
				(length 2.54)
				(name "X2"
					(effects
						(font
							(size 1.27 1.27)
						)
					)
				)
				(number "8"
					(effects
						(font
							(size 1.27 1.27)
						)
					)
				)
			)
			(pin power_in line
				(at 0 -17.78 90)
				(length 2.54)
				(name "VSS"
					(effects
						(font
							(size 1.27 1.27)
						)
					)
				)
				(number "9"
					(effects
						(font
							(size 1.27 1.27)
						)
					)
				)
			)
		)
	)
	(symbol "Si3210"
		(pin_names
			(offset 1.016)
		)
		(exclude_from_sim no)
		(in_bom yes)
		(on_board yes)
		(property "Reference" "U"
			(at -13.97 36.195 0)
			(effects
				(font
					(size 1.27 1.27)
				)
				(justify right)
			)
		)
		(property "Value" "Si3210"
			(at -13.97 34.29 0)
			(effects
				(font
					(size 1.27 1.27)
				)
				(justify right)
			)
		)
		(property "Footprint" "Package_SO:TSSOP-38_4.4x9.7mm_P0.5mm"
			(at 6.35 35.56 0)
			(effects
				(font
					(size 1.27 1.27)
				)
				(justify left)
				(hide yes)
			)
		)
		(property "Datasheet" "http://www.mouser.com/ds/2/368/si3210-38974.pdf"
			(at 88.9 -67.31 0)
			(effects
				(font
					(size 1.27 1.27)
				)
				(hide yes)
			)
		)
		(property "Description" "ProSLIC Programmable cmos slic/codec with ringing/battery voltage generation"
			(at 0 0 0)
			(effects
				(font
					(size 1.27 1.27)
				)
				(hide yes)
			)
		)
		(property "ki_keywords" "ProSLIC slic"
			(at 0 0 0)
			(effects
				(font
					(size 1.27 1.27)
				)
				(hide yes)
			)
		)
		(property "ki_fp_filters" "TSSOP*"
			(at 0 0 0)
			(effects
				(font
					(size 1.27 1.27)
				)
				(hide yes)
			)
		)
		(symbol "Si3210_0_1"
			(rectangle
				(start -20.32 33.02)
				(end 20.32 -35.56)
				(stroke
					(width 0.254)
					(type default)
				)
				(fill
					(type background)
				)
			)
		)
		(symbol "Si3210_1_1"
			(pin input line
				(at 25.4 15.24 180)
				(length 5.08)
				(name "~{CS}"
					(effects
						(font
							(size 1.27 1.27)
						)
					)
				)
				(number "1"
					(effects
						(font
							(size 1.27 1.27)
						)
					)
				)
			)
			(pin power_in line
				(at -5.08 38.1 270)
				(length 5.08)
				(name "VDDA1"
					(effects
						(font
							(size 1.27 1.27)
						)
					)
				)
				(number "10"
					(effects
						(font
							(size 1.27 1.27)
						)
					)
				)
			)
			(pin output line
				(at 25.4 -17.78 180)
				(length 5.08)
				(name "IREF"
					(effects
						(font
							(size 1.27 1.27)
						)
					)
				)
				(number "11"
					(effects
						(font
							(size 1.27 1.27)
						)
					)
				)
			)
			(pin output line
				(at 25.4 -20.32 180)
				(length 5.08)
				(name "CAPP"
					(effects
						(font
							(size 1.27 1.27)
						)
					)
				)
				(number "12"
					(effects
						(font
							(size 1.27 1.27)
						)
					)
				)
			)
			(pin power_in line
				(at 25.4 -25.4 180)
				(length 5.08)
				(name "QGND"
					(effects
						(font
							(size 1.27 1.27)
						)
					)
				)
				(number "13"
					(effects
						(font
							(size 1.27 1.27)
						)
					)
				)
			)
			(pin output line
				(at 25.4 -22.86 180)
				(length 5.08)
				(name "CAPM"
					(effects
						(font
							(size 1.27 1.27)
						)
					)
				)
				(number "14"
					(effects
						(font
							(size 1.27 1.27)
						)
					)
				)
			)
			(pin input line
				(at -25.4 20.32 0)
				(length 5.08)
				(name "STIPDC"
					(effects
						(font
							(size 1.27 1.27)
						)
					)
				)
				(number "15"
					(effects
						(font
							(size 1.27 1.27)
						)
					)
				)
			)
			(pin input line
				(at -25.4 -25.4 0)
				(length 5.08)
				(name "SRINGDC"
					(effects
						(font
							(size 1.27 1.27)
						)
					)
				)
				(number "16"
					(effects
						(font
							(size 1.27 1.27)
						)
					)
				)
			)
			(pin input line
				(at -25.4 -2.54 0)
				(length 5.08)
				(name "STIPE"
					(effects
						(font
							(size 1.27 1.27)
						)
					)
				)
				(number "17"
					(effects
						(font
							(size 1.27 1.27)
						)
					)
				)
			)
			(pin input line
				(at -25.4 -12.7 0)
				(length 5.08)
				(name "SVBAT"
					(effects
						(font
							(size 1.27 1.27)
						)
					)
				)
				(number "18"
					(effects
						(font
							(size 1.27 1.27)
						)
					)
				)
			)
			(pin input line
				(at -25.4 -5.08 0)
				(length 5.08)
				(name "SRINGE"
					(effects
						(font
							(size 1.27 1.27)
						)
					)
				)
				(number "19"
					(effects
						(font
							(size 1.27 1.27)
						)
					)
				)
			)
			(pin output line
				(at 25.4 -2.54 180)
				(length 5.08)
				(name "~{INT}"
					(effects
						(font
							(size 1.27 1.27)
						)
					)
				)
				(number "2"
					(effects
						(font
							(size 1.27 1.27)
						)
					)
				)
			)
			(pin input line
				(at -25.4 17.78 0)
				(length 5.08)
				(name "STIPAC"
					(effects
						(font
							(size 1.27 1.27)
						)
					)
				)
				(number "20"
					(effects
						(font
							(size 1.27 1.27)
						)
					)
				)
			)
			(pin input line
				(at -25.4 -22.86 0)
				(length 5.08)
				(name "SRINGAC"
					(effects
						(font
							(size 1.27 1.27)
						)
					)
				)
				(number "21"
					(effects
						(font
							(size 1.27 1.27)
						)
					)
				)
			)
			(pin output line
				(at 25.4 -12.7 180)
				(length 5.08)
				(name "IGMN"
					(effects
						(font
							(size 1.27 1.27)
						)
					)
				)
				(number "22"
					(effects
						(font
							(size 1.27 1.27)
						)
					)
				)
			)
			(pin power_in line
				(at 7.62 -40.64 90)
				(length 5.08)
				(name "GNDA"
					(effects
						(font
							(size 1.27 1.27)
						)
					)
				)
				(number "23"
					(effects
						(font
							(size 1.27 1.27)
						)
					)
				)
			)
			(pin output line
				(at 25.4 -10.16 180)
				(length 5.08)
				(name "IGMP"
					(effects
						(font
							(size 1.27 1.27)
						)
					)
				)
				(number "24"
					(effects
						(font
							(size 1.27 1.27)
						)
					)
				)
			)
			(pin input line
				(at -25.4 5.08 0)
				(length 5.08)
				(name "IRINGN"
					(effects
						(font
							(size 1.27 1.27)
						)
					)
				)
				(number "25"
					(effects
						(font
							(size 1.27 1.27)
						)
					)
				)
			)
			(pin input line
				(at -25.4 0 0)
				(length 5.08)
				(name "IRINGP"
					(effects
						(font
							(size 1.27 1.27)
						)
					)
				)
				(number "26"
					(effects
						(font
							(size 1.27 1.27)
						)
					)
				)
			)
			(pin power_in line
				(at 0 38.1 270)
				(length 5.08)
				(name "VDDA2"
					(effects
						(font
							(size 1.27 1.27)
						)
					)
				)
				(number "27"
					(effects
						(font
							(size 1.27 1.27)
						)
					)
				)
			)
			(pin input line
				(at -25.4 2.54 0)
				(length 5.08)
				(name "ITIPP"
					(effects
						(font
							(size 1.27 1.27)
						)
					)
				)
				(number "28"
					(effects
						(font
							(size 1.27 1.27)
						)
					)
				)
			)
			(pin input line
				(at -25.4 7.62 0)
				(length 5.08)
				(name "ITIPN"
					(effects
						(font
							(size 1.27 1.27)
						)
					)
				)
				(number "29"
					(effects
						(font
							(size 1.27 1.27)
						)
					)
				)
			)
			(pin input line
				(at 25.4 7.62 180)
				(length 5.08)
				(name "PCLK"
					(effects
						(font
							(size 1.27 1.27)
						)
					)
				)
				(number "3"
					(effects
						(font
							(size 1.27 1.27)
						)
					)
				)
			)
			(pin power_in line
				(at 5.08 38.1 270)
				(length 5.08)
				(name "VDDD"
					(effects
						(font
							(size 1.27 1.27)
						)
					)
				)
				(number "30"
					(effects
						(font
							(size 1.27 1.27)
						)
					)
				)
			)
			(pin power_in line
				(at 2.54 -40.64 90)
				(length 5.08)
				(name "GNDD"
					(effects
						(font
							(size 1.27 1.27)
						)
					)
				)
				(number "31"
					(effects
						(font
							(size 1.27 1.27)
						)
					)
				)
			)
			(pin input line
				(at -25.4 25.4 0)
				(length 5.08)
				(name "TEST"
					(effects
						(font
							(size 1.27 1.27)
						)
					)
				)
				(number "32"
					(effects
						(font
							(size 1.27 1.27)
						)
					)
				)
			)
			(pin output line
				(at -2.54 -40.64 90)
				(length 5.08)
				(name "DCFF"
					(effects
						(font
							(size 1.27 1.27)
						)
					)
				)
				(number "33"
					(effects
						(font
							(size 1.27 1.27)
						)
					)
				)
			)
			(pin output line
				(at -5.08 -40.64 90)
				(length 5.08)
				(name "DCDRV"
					(effects
						(font
							(size 1.27 1.27)
						)
					)
				)
				(number "34"
					(effects
						(font
							(size 1.27 1.27)
						)
					)
				)
			)
			(pin output line
				(at 25.4 20.32 180)
				(length 5.08)
				(name "SDITHRU"
					(effects
						(font
							(size 1.27 1.27)
						)
					)
				)
				(number "35"
					(effects
						(font
							(size 1.27 1.27)
						)
					)
				)
			)
			(pin output line
				(at 25.4 17.78 180)
				(length 5.08)
				(name "SDO"
					(effects
						(font
							(size 1.27 1.27)
						)
					)
				)
				(number "36"
					(effects
						(font
							(size 1.27 1.27)
						)
					)
				)
			)
			(pin input line
				(at 25.4 22.86 180)
				(length 5.08)
				(name "SDI"
					(effects
						(font
							(size 1.27 1.27)
						)
					)
				)
				(number "37"
					(effects
						(font
							(size 1.27 1.27)
						)
					)
				)
			)
			(pin input line
				(at 25.4 25.4 180)
				(length 5.08)
				(name "SCLK"
					(effects
						(font
							(size 1.27 1.27)
						)
					)
				)
				(number "38"
					(effects
						(font
							(size 1.27 1.27)
						)
					)
				)
			)
			(pin input line
				(at 25.4 5.08 180)
				(length 5.08)
				(name "DRX"
					(effects
						(font
							(size 1.27 1.27)
						)
					)
				)
				(number "4"
					(effects
						(font
							(size 1.27 1.27)
						)
					)
				)
			)
			(pin output line
				(at 25.4 2.54 180)
				(length 5.08)
				(name "DTX"
					(effects
						(font
							(size 1.27 1.27)
						)
					)
				)
				(number "5"
					(effects
						(font
							(size 1.27 1.27)
						)
					)
				)
			)
			(pin input line
				(at 25.4 10.16 180)
				(length 5.08)
				(name "FSYNC"
					(effects
						(font
							(size 1.27 1.27)
						)
					)
				)
				(number "6"
					(effects
						(font
							(size 1.27 1.27)
						)
					)
				)
			)
			(pin input line
				(at 25.4 -5.08 180)
				(length 5.08)
				(name "~{RESET}"
					(effects
						(font
							(size 1.27 1.27)
						)
					)
				)
				(number "7"
					(effects
						(font
							(size 1.27 1.27)
						)
					)
				)
			)
			(pin output line
				(at -7.62 -40.64 90)
				(length 5.08)
				(name "SDCH"
					(effects
						(font
							(size 1.27 1.27)
						)
					)
				)
				(number "8"
					(effects
						(font
							(size 1.27 1.27)
						)
					)
				)
			)
			(pin output line
				(at -10.16 -40.64 90)
				(length 5.08)
				(name "SDCL"
					(effects
						(font
							(size 1.27 1.27)
						)
					)
				)
				(number "9"
					(effects
						(font
							(size 1.27 1.27)
						)
					)
				)
			)
		)
	)
)